<?xml version="1.0" encoding="utf-8"?>
<!-- Generator: Adobe Illustrator 23.0.2, SVG Export Plug-In . SVG Version: 6.00 Build 0)  -->
<svg version="1.1" id="Layer_1" xmlns="http://www.w3.org/2000/svg" xmlns:xlink="http://www.w3.org/1999/xlink" x="0px" y="0px"
	 viewBox="0 0 1092.35 441.35" style="enable-background:new 0 0 1092.35 441.35;" xml:space="preserve">
<style type="text/css">
	.st0{fill:#4F4F4F;}
</style>
<g>
	<g>
		<g>
			<path d="M899.17,86.83h-2.8v6.25h-3.52V76.01h6.34c2.02,0,3.57,0.45,4.66,1.35s1.64,2.17,1.64,3.81c0,1.16-0.25,2.13-0.76,2.91
				s-1.27,1.4-2.29,1.86l3.69,6.97v0.16h-3.77L899.17,86.83z M896.37,83.98h2.84c0.88,0,1.57-0.22,2.05-0.67s0.73-1.07,0.73-1.86
				c0-0.8-0.23-1.44-0.69-1.9s-1.16-0.69-2.1-0.69h-2.82V83.98z"/>
			<path d="M907.42,86.62c0-1.26,0.24-2.38,0.73-3.36s1.18-1.75,2.09-2.29s1.97-0.81,3.17-0.81c1.71,0,3.11,0.52,4.19,1.57
				s1.69,2.47,1.81,4.27l0.02,0.87c0,1.95-0.54,3.51-1.63,4.68s-2.54,1.76-4.37,1.76s-3.29-0.59-4.38-1.76s-1.63-2.77-1.63-4.78
				V86.62z M910.8,86.86c0,1.21,0.23,2.13,0.68,2.76s1.1,0.96,1.95,0.96c0.82,0,1.46-0.31,1.92-0.94s0.69-1.64,0.69-3.02
				c0-1.18-0.23-2.1-0.69-2.75s-1.11-0.97-1.95-0.97c-0.83,0-1.47,0.32-1.92,0.97S910.8,85.5,910.8,86.86z"/>
			<path d="M926.79,90.58c0.63,0,1.13-0.17,1.52-0.52s0.59-0.8,0.61-1.37h3.18c-0.01,0.86-0.24,1.65-0.7,2.36s-1.09,1.27-1.89,1.66
				s-1.69,0.59-2.65,0.59c-1.81,0-3.24-0.58-4.29-1.73s-1.57-2.74-1.57-4.78v-0.22c0-1.95,0.52-3.51,1.56-4.68s2.46-1.75,4.28-1.75
				c1.59,0,2.86,0.45,3.81,1.35s1.44,2.1,1.46,3.6h-3.18c-0.02-0.66-0.22-1.2-0.61-1.61c-0.39-0.41-0.91-0.62-1.55-0.62
				c-0.79,0-1.38,0.29-1.79,0.86c-0.4,0.57-0.6,1.51-0.6,2.8v0.35c0,1.31,0.2,2.25,0.6,2.82C925.37,90.29,925.98,90.58,926.79,90.58
				z"/>
			<path d="M938.64,87.99l-1.22,1.22v3.87h-3.39v-18h3.39v9.97l0.66-0.84l3.25-3.81h4.07l-4.58,5.29l4.98,7.39h-3.89L938.64,87.99z"
				/>
		</g>
		<g>
			<g>
				<path d="M830.75,252.06v6.01h-3.52v-17.06h6.66c1.28,0,2.41,0.23,3.38,0.7s1.72,1.13,2.24,2s0.79,1.85,0.79,2.95
					c0,1.67-0.57,2.99-1.72,3.96s-2.73,1.45-4.75,1.45H830.75z M830.75,249.21h3.14c0.93,0,1.64-0.22,2.13-0.66s0.73-1.06,0.73-1.88
					c0-0.84-0.25-1.51-0.74-2.03s-1.17-0.78-2.04-0.8h-3.22V249.21z"/>
				<path d="M849.71,258.07c-0.16-0.3-0.27-0.68-0.34-1.14c-0.82,0.91-1.89,1.37-3.2,1.37c-1.24,0-2.27-0.36-3.09-1.08
					s-1.22-1.63-1.22-2.72c0-1.34,0.5-2.38,1.49-3.09s2.44-1.08,4.32-1.09h1.56v-0.73c0-0.59-0.15-1.05-0.45-1.41
					s-0.78-0.53-1.42-0.53c-0.57,0-1.02,0.14-1.34,0.41s-0.49,0.65-0.49,1.13h-3.39c0-0.73,0.23-1.41,0.68-2.04s1.09-1.12,1.92-1.47
					s1.76-0.53,2.79-0.53c1.56,0,2.8,0.39,3.72,1.18s1.38,1.89,1.38,3.31v5.5c0.01,1.2,0.18,2.11,0.5,2.73v0.2H849.71z
					 M846.91,255.72c0.5,0,0.96-0.11,1.38-0.33s0.73-0.52,0.94-0.9v-2.18h-1.27c-1.7,0-2.6,0.59-2.71,1.76l-0.01,0.2
					c0,0.42,0.15,0.77,0.45,1.04S846.39,255.72,846.91,255.72z"/>
				<path d="M866.64,251.85c0,1.95-0.44,3.52-1.33,4.69s-2.08,1.76-3.59,1.76c-1.28,0-2.32-0.45-3.11-1.34v5.98h-3.39v-17.55h3.14
					l0.12,1.24c0.82-0.98,1.89-1.48,3.21-1.48c1.56,0,2.78,0.58,3.64,1.73s1.3,2.75,1.3,4.78V251.85z M863.26,251.6
					c0-1.18-0.21-2.09-0.63-2.73s-1.03-0.96-1.82-0.96c-1.06,0-1.79,0.41-2.19,1.22v5.19c0.41,0.84,1.15,1.25,2.21,1.25
					C862.45,255.58,863.26,254.25,863.26,251.6z"/>
				<path d="M874.58,258.31c-1.86,0-3.37-0.57-4.54-1.71s-1.75-2.66-1.75-4.56v-0.33c0-1.27,0.25-2.41,0.74-3.42
					s1.19-1.78,2.09-2.32s1.93-0.81,3.09-0.81c1.73,0,3.1,0.55,4.1,1.64s1.49,2.64,1.49,4.65v1.38h-8.07
					c0.11,0.83,0.44,1.49,0.99,1.99s1.25,0.75,2.09,0.75c1.3,0,2.32-0.47,3.06-1.42l1.66,1.86c-0.51,0.72-1.2,1.28-2.06,1.68
					S875.63,258.31,874.58,258.31z M874.19,247.89c-0.67,0-1.22,0.23-1.63,0.68c-0.42,0.46-0.69,1.11-0.8,1.95h4.71v-0.27
					c-0.02-0.75-0.22-1.34-0.61-1.75C875.46,248.1,874.91,247.89,874.19,247.89z"/>
				<path d="M888.84,248.57c-0.46-0.06-0.87-0.09-1.22-0.09c-1.28,0-2.12,0.43-2.52,1.3v8.3h-3.39v-12.68h3.2l0.09,1.51
					c0.68-1.16,1.62-1.75,2.82-1.75c0.38,0,0.73,0.05,1.05,0.15L888.84,248.57z"/>
			</g>
			<g>
				<path d="M942.32,253.6c0-0.66-0.23-1.17-0.7-1.53s-1.31-0.73-2.53-1.13s-2.18-0.78-2.89-1.17c-1.94-1.05-2.91-2.46-2.91-4.23
					c0-0.92,0.26-1.74,0.78-2.47s1.27-1.29,2.24-1.69s2.06-0.61,3.28-0.61c1.22,0,2.3,0.22,3.26,0.66s1.69,1.06,2.22,1.87
					s0.79,1.72,0.79,2.74h-3.52c0-0.78-0.25-1.39-0.74-1.82s-1.18-0.65-2.07-0.65c-0.86,0-1.53,0.18-2,0.54s-0.71,0.84-0.71,1.44
					c0,0.55,0.28,1.02,0.84,1.39s1.38,0.73,2.47,1.05c2,0.6,3.46,1.35,4.37,2.24s1.37,2,1.37,3.33c0,1.48-0.56,2.63-1.68,3.47
					s-2.62,1.26-4.51,1.26c-1.31,0-2.51-0.24-3.59-0.72s-1.9-1.14-2.47-1.97s-0.85-1.8-0.85-2.91h3.53c0,1.88,1.13,2.82,3.38,2.82
					c0.84,0,1.49-0.17,1.96-0.51S942.32,254.21,942.32,253.6z"/>
				<path d="M953.28,255.58c0.63,0,1.13-0.17,1.52-0.52s0.59-0.8,0.61-1.37h3.18c-0.01,0.86-0.24,1.65-0.7,2.36
					s-1.09,1.27-1.89,1.66s-1.69,0.59-2.65,0.59c-1.81,0-3.24-0.58-4.29-1.73s-1.57-2.74-1.57-4.78v-0.22
					c0-1.95,0.52-3.51,1.56-4.68s2.46-1.75,4.28-1.75c1.59,0,2.86,0.45,3.81,1.35s1.44,2.1,1.46,3.6h-3.18
					c-0.02-0.66-0.22-1.2-0.61-1.61c-0.39-0.41-0.91-0.62-1.55-0.62c-0.79,0-1.38,0.29-1.79,0.86c-0.4,0.57-0.6,1.51-0.6,2.8v0.35
					c0,1.31,0.2,2.25,0.6,2.82C951.86,255.29,952.47,255.58,953.28,255.58z"/>
				<path d="M960.5,242.11c0-0.51,0.17-0.93,0.51-1.25s0.8-0.49,1.39-0.49c0.58,0,1.04,0.16,1.38,0.49s0.52,0.75,0.52,1.25
					c0,0.52-0.17,0.94-0.52,1.27s-0.81,0.49-1.38,0.49s-1.03-0.16-1.38-0.49S960.5,242.63,960.5,242.11z M964.1,258.07h-3.4v-12.68
					h3.4V258.07z"/>
				<path d="M973.75,254.57c0-0.41-0.21-0.74-0.62-0.98s-1.07-0.45-1.97-0.64c-3.02-0.63-4.52-1.91-4.52-3.84
					c0-1.13,0.47-2.06,1.4-2.82s2.15-1.13,3.66-1.13c1.61,0,2.9,0.38,3.86,1.14s1.45,1.74,1.45,2.95h-3.39
					c0-0.48-0.16-0.88-0.47-1.2s-0.8-0.47-1.46-0.47c-0.57,0-1.01,0.13-1.32,0.39s-0.47,0.59-0.47,0.98c0,0.38,0.18,0.68,0.53,0.91
					s0.96,0.43,1.8,0.6s1.55,0.36,2.13,0.57c1.79,0.66,2.68,1.79,2.68,3.41c0,1.16-0.5,2.09-1.49,2.81s-2.27,1.07-3.84,1.07
					c-1.06,0-2.01-0.19-2.83-0.57s-1.47-0.9-1.94-1.56s-0.7-1.37-0.7-2.14h3.21c0.03,0.6,0.25,1.06,0.67,1.38s0.97,0.48,1.66,0.48
					c0.65,0,1.14-0.12,1.47-0.37S973.75,254.97,973.75,254.57z"/>
				<path d="M986.09,254.57c0-0.41-0.21-0.74-0.62-0.98s-1.07-0.45-1.97-0.64c-3.02-0.63-4.52-1.91-4.52-3.84
					c0-1.13,0.47-2.06,1.4-2.82s2.15-1.13,3.66-1.13c1.61,0,2.9,0.38,3.86,1.14s1.45,1.74,1.45,2.95h-3.39
					c0-0.48-0.16-0.88-0.47-1.2s-0.8-0.47-1.46-0.47c-0.57,0-1.01,0.13-1.32,0.39s-0.47,0.59-0.47,0.98c0,0.38,0.18,0.68,0.53,0.91
					s0.96,0.43,1.8,0.6s1.55,0.36,2.13,0.57c1.79,0.66,2.68,1.79,2.68,3.41c0,1.16-0.5,2.09-1.49,2.81s-2.27,1.07-3.84,1.07
					c-1.06,0-2.01-0.19-2.83-0.57s-1.47-0.9-1.94-1.56s-0.7-1.37-0.7-2.14h3.21c0.03,0.6,0.25,1.06,0.67,1.38s0.97,0.48,1.66,0.48
					c0.65,0,1.14-0.12,1.47-0.37S986.09,254.97,986.09,254.57z"/>
				<path d="M991.04,251.62c0-1.26,0.24-2.38,0.73-3.36s1.18-1.75,2.09-2.29s1.97-0.81,3.17-0.81c1.71,0,3.11,0.52,4.19,1.57
					s1.69,2.47,1.81,4.27l0.02,0.87c0,1.95-0.54,3.51-1.63,4.68s-2.54,1.76-4.37,1.76s-3.29-0.59-4.38-1.76s-1.63-2.77-1.63-4.78
					V251.62z M994.42,251.86c0,1.21,0.23,2.13,0.68,2.76c0.45,0.64,1.1,0.96,1.95,0.96c0.82,0,1.46-0.31,1.92-0.95
					c0.46-0.63,0.69-1.64,0.69-3.02c0-1.18-0.23-2.1-0.69-2.75c-0.46-0.65-1.11-0.97-1.95-0.97c-0.83,0-1.47,0.32-1.92,0.97
					C994.65,249.5,994.42,250.5,994.42,251.86z"/>
				<path d="M1012.26,248.57c-0.46-0.06-0.87-0.09-1.22-0.09c-1.28,0-2.12,0.43-2.52,1.3v8.3h-3.39v-12.68h3.2l0.09,1.51
					c0.68-1.16,1.62-1.75,2.82-1.75c0.38,0,0.73,0.05,1.05,0.15L1012.26,248.57z"/>
				<path d="M1020.76,254.57c0-0.41-0.21-0.74-0.62-0.98s-1.07-0.45-1.97-0.64c-3.02-0.63-4.52-1.91-4.52-3.84
					c0-1.13,0.47-2.06,1.4-2.82s2.15-1.13,3.66-1.13c1.61,0,2.9,0.38,3.86,1.14s1.45,1.74,1.45,2.95h-3.39
					c0-0.48-0.16-0.88-0.47-1.2s-0.8-0.47-1.46-0.47c-0.57,0-1.01,0.13-1.32,0.39s-0.47,0.59-0.47,0.98c0,0.38,0.18,0.68,0.53,0.91
					s0.96,0.43,1.8,0.6s1.55,0.36,2.13,0.57c1.79,0.66,2.68,1.79,2.68,3.41c0,1.16-0.5,2.09-1.49,2.81s-2.27,1.07-3.84,1.07
					c-1.06,0-2.01-0.19-2.83-0.57s-1.47-0.9-1.94-1.56s-0.7-1.37-0.7-2.14h3.21c0.03,0.6,0.25,1.06,0.67,1.38s0.97,0.48,1.66,0.48
					c0.65,0,1.14-0.12,1.47-0.37S1020.76,254.97,1020.76,254.57z"/>
			</g>
		</g>
		<g>
			<circle cx="857.68" cy="220.57" r="7.5"/>
		</g>
		<g>
			<circle cx="978.68" cy="220.57" r="7.5"/>
		</g>
		<g>
			<circle cx="918.68" cy="109.57" r="7.5"/>
		</g>
		<g>
			<path d="M917.68,331.07c-81.33,0-147.5-66.17-147.5-147.5s66.17-147.5,147.5-147.5s147.5,66.17,147.5,147.5
				S999.01,331.07,917.68,331.07z M917.68,39.07c-79.68,0-144.5,64.82-144.5,144.5s64.82,144.5,144.5,144.5s144.5-64.82,144.5-144.5
				S997.35,39.07,917.68,39.07z"/>
		</g>
		<g>
			<g>
				<path d="M868.13,200.39c-0.26,0-0.53-0.07-0.78-0.22c-0.71-0.43-0.94-1.35-0.51-2.06l45.54-75.32c0.43-0.71,1.35-0.93,2.06-0.51
					c0.71,0.43,0.94,1.35,0.51,2.06l-45.54,75.32C869.14,200.13,868.64,200.39,868.13,200.39z"/>
			</g>
			<g>
				<g>
					<polygon points="876.87,201.2 861.68,209.57 862.03,192.23 					"/>
				</g>
			</g>
		</g>
		<g>
			<g>
				<path d="M973.68,208.67c-0.51,0-1.01-0.26-1.29-0.74l-44.66-75.84c-0.42-0.71-0.18-1.63,0.53-2.05
					c0.71-0.42,1.63-0.18,2.05,0.53l44.66,75.84c0.42,0.71,0.18,1.63-0.53,2.05C974.2,208.61,973.94,208.67,973.68,208.67z"/>
			</g>
			<g>
				<g>
					<polygon points="922.82,137.92 922.68,120.57 937.78,129.12 					"/>
				</g>
			</g>
		</g>
		<g>
			<g>
				<path d="M954.19,222.07h-82.51c-0.83,0-1.5-0.67-1.5-1.5s0.67-1.5,1.5-1.5h82.51c0.83,0,1.5,0.67,1.5,1.5
					S955.02,222.07,954.19,222.07z"/>
			</g>
			<g>
				<g>
					<polygon points="951.65,211.9 966.68,220.57 951.65,229.25 					"/>
				</g>
			</g>
		</g>
	</g>
	<g>
		<g>
			<path d="M527.67,86.83h-2.8v6.25h-3.52V76.01h6.34c2.02,0,3.57,0.45,4.66,1.35s1.64,2.17,1.64,3.81c0,1.16-0.25,2.13-0.76,2.91
				s-1.27,1.4-2.29,1.86l3.69,6.97v0.16h-3.77L527.67,86.83z M524.87,83.98h2.84c0.88,0,1.57-0.22,2.05-0.67s0.73-1.07,0.73-1.86
				c0-0.8-0.23-1.44-0.69-1.9s-1.16-0.69-2.1-0.69h-2.82V83.98z"/>
			<path d="M535.92,86.62c0-1.26,0.24-2.38,0.73-3.36s1.18-1.75,2.09-2.29s1.97-0.81,3.17-0.81c1.71,0,3.11,0.52,4.19,1.57
				c1.08,1.05,1.69,2.47,1.81,4.27l0.02,0.87c0,1.95-0.54,3.51-1.63,4.68c-1.09,1.18-2.54,1.76-4.37,1.76s-3.29-0.59-4.38-1.76
				s-1.63-2.77-1.63-4.78V86.62z M539.3,86.86c0,1.21,0.23,2.13,0.68,2.76s1.1,0.96,1.95,0.96c0.82,0,1.46-0.31,1.92-0.94
				s0.69-1.64,0.69-3.02c0-1.18-0.23-2.1-0.69-2.75s-1.11-0.97-1.95-0.97c-0.83,0-1.47,0.32-1.92,0.97S539.3,85.5,539.3,86.86z"/>
			<path d="M555.29,90.58c0.63,0,1.13-0.17,1.52-0.52s0.59-0.8,0.61-1.37h3.18c-0.01,0.86-0.24,1.65-0.7,2.36s-1.09,1.27-1.89,1.66
				s-1.69,0.59-2.65,0.59c-1.81,0-3.24-0.58-4.29-1.73s-1.57-2.74-1.57-4.78v-0.22c0-1.95,0.52-3.51,1.56-4.68s2.46-1.75,4.28-1.75
				c1.59,0,2.86,0.45,3.81,1.35s1.44,2.1,1.46,3.6h-3.18c-0.02-0.66-0.22-1.2-0.61-1.61c-0.39-0.41-0.91-0.62-1.55-0.62
				c-0.79,0-1.38,0.29-1.79,0.86c-0.4,0.57-0.6,1.51-0.6,2.8v0.35c0,1.31,0.2,2.25,0.6,2.82C553.87,90.29,554.48,90.58,555.29,90.58
				z"/>
			<path d="M567.14,87.99l-1.22,1.22v3.87h-3.39v-18h3.39v9.97l0.66-0.84l3.25-3.81h4.07l-4.58,5.29l4.98,7.39h-3.89L567.14,87.99z"
				/>
		</g>
		<g>
			<g>
				<path d="M459.25,252.06v6.01h-3.52v-17.06h6.66c1.28,0,2.41,0.23,3.38,0.7s1.72,1.13,2.24,2s0.79,1.85,0.79,2.95
					c0,1.67-0.57,2.99-1.72,3.96s-2.73,1.45-4.75,1.45H459.25z M459.25,249.21h3.14c0.93,0,1.64-0.22,2.13-0.66s0.73-1.06,0.73-1.88
					c0-0.84-0.25-1.51-0.74-2.03s-1.17-0.78-2.04-0.8h-3.22V249.21z"/>
				<path d="M478.21,258.07c-0.16-0.3-0.27-0.68-0.34-1.14c-0.82,0.91-1.89,1.37-3.2,1.37c-1.24,0-2.27-0.36-3.09-1.08
					s-1.22-1.63-1.22-2.72c0-1.34,0.5-2.38,1.49-3.09s2.44-1.08,4.32-1.09h1.56v-0.73c0-0.59-0.15-1.05-0.45-1.41
					s-0.78-0.53-1.42-0.53c-0.57,0-1.02,0.14-1.34,0.41s-0.49,0.65-0.49,1.13h-3.39c0-0.73,0.23-1.41,0.68-2.04s1.09-1.12,1.92-1.47
					s1.76-0.53,2.79-0.53c1.56,0,2.8,0.39,3.72,1.18s1.38,1.89,1.38,3.31v5.5c0.01,1.2,0.18,2.11,0.5,2.73v0.2H478.21z
					 M475.41,255.72c0.5,0,0.96-0.11,1.38-0.33s0.73-0.52,0.94-0.9v-2.18h-1.27c-1.7,0-2.6,0.59-2.71,1.76l-0.01,0.2
					c0,0.42,0.15,0.77,0.45,1.04S474.89,255.72,475.41,255.72z"/>
				<path d="M495.14,251.85c0,1.95-0.44,3.52-1.33,4.69s-2.08,1.76-3.59,1.76c-1.28,0-2.32-0.45-3.11-1.34v5.98h-3.39v-17.55h3.14
					l0.12,1.24c0.82-0.98,1.89-1.48,3.21-1.48c1.56,0,2.78,0.58,3.64,1.73s1.3,2.75,1.3,4.78V251.85z M491.76,251.6
					c0-1.18-0.21-2.09-0.63-2.73s-1.03-0.96-1.82-0.96c-1.06,0-1.79,0.41-2.19,1.22v5.19c0.41,0.84,1.15,1.25,2.21,1.25
					C490.95,255.58,491.76,254.25,491.76,251.6z"/>
				<path d="M503.08,258.31c-1.86,0-3.37-0.57-4.54-1.71s-1.75-2.66-1.75-4.56v-0.33c0-1.27,0.25-2.41,0.74-3.42
					s1.19-1.78,2.09-2.32s1.93-0.81,3.09-0.81c1.73,0,3.1,0.55,4.1,1.64s1.49,2.64,1.49,4.65v1.38h-8.07
					c0.11,0.83,0.44,1.49,0.99,1.99s1.25,0.75,2.09,0.75c1.3,0,2.32-0.47,3.06-1.42l1.66,1.86c-0.51,0.72-1.2,1.28-2.06,1.68
					S504.13,258.31,503.08,258.31z M502.69,247.89c-0.67,0-1.22,0.23-1.63,0.68c-0.42,0.46-0.69,1.11-0.8,1.95h4.71v-0.27
					c-0.02-0.75-0.22-1.34-0.61-1.75C503.96,248.1,503.41,247.89,502.69,247.89z"/>
				<path d="M517.34,248.57c-0.46-0.06-0.87-0.09-1.22-0.09c-1.28,0-2.12,0.43-2.52,1.3v8.3h-3.39v-12.68h3.2l0.09,1.51
					c0.68-1.16,1.62-1.75,2.82-1.75c0.38,0,0.73,0.05,1.05,0.15L517.34,248.57z"/>
			</g>
			<g>
				<path d="M570.82,253.6c0-0.66-0.23-1.17-0.7-1.53s-1.31-0.73-2.53-1.13s-2.18-0.78-2.89-1.17c-1.94-1.05-2.91-2.46-2.91-4.23
					c0-0.92,0.26-1.74,0.78-2.47s1.27-1.29,2.24-1.69s2.06-0.61,3.28-0.61c1.22,0,2.3,0.22,3.26,0.66s1.69,1.06,2.22,1.87
					s0.79,1.72,0.79,2.74h-3.52c0-0.78-0.25-1.39-0.74-1.82s-1.18-0.65-2.07-0.65c-0.86,0-1.53,0.18-2,0.54s-0.71,0.84-0.71,1.44
					c0,0.55,0.28,1.02,0.84,1.39s1.38,0.73,2.47,1.05c2,0.6,3.46,1.35,4.37,2.24s1.37,2,1.37,3.33c0,1.48-0.56,2.63-1.68,3.47
					s-2.62,1.26-4.51,1.26c-1.31,0-2.51-0.24-3.59-0.72s-1.9-1.14-2.47-1.97s-0.85-1.8-0.85-2.91h3.53c0,1.88,1.13,2.82,3.38,2.82
					c0.84,0,1.49-0.17,1.96-0.51S570.82,254.21,570.82,253.6z"/>
				<path d="M581.78,255.58c0.63,0,1.13-0.17,1.52-0.52s0.59-0.8,0.61-1.37h3.18c-0.01,0.86-0.24,1.65-0.7,2.36
					s-1.09,1.27-1.89,1.66s-1.69,0.59-2.65,0.59c-1.81,0-3.24-0.58-4.29-1.73s-1.57-2.74-1.57-4.78v-0.22
					c0-1.95,0.52-3.51,1.56-4.68s2.46-1.75,4.28-1.75c1.59,0,2.86,0.45,3.81,1.35s1.44,2.1,1.46,3.6h-3.18
					c-0.02-0.66-0.22-1.2-0.61-1.61c-0.39-0.41-0.91-0.62-1.55-0.62c-0.79,0-1.38,0.29-1.79,0.86c-0.4,0.57-0.6,1.51-0.6,2.8v0.35
					c0,1.31,0.2,2.25,0.6,2.82C580.36,255.29,580.97,255.58,581.78,255.58z"/>
				<path d="M589,242.11c0-0.51,0.17-0.93,0.51-1.25s0.8-0.49,1.39-0.49c0.58,0,1.04,0.16,1.38,0.49s0.52,0.75,0.52,1.25
					c0,0.52-0.17,0.94-0.52,1.27s-0.81,0.49-1.38,0.49s-1.03-0.16-1.38-0.49S589,242.63,589,242.11z M592.6,258.07h-3.4v-12.68h3.4
					V258.07z"/>
				<path d="M602.25,254.57c0-0.41-0.21-0.74-0.62-0.98s-1.07-0.45-1.97-0.64c-3.02-0.63-4.52-1.91-4.52-3.84
					c0-1.13,0.47-2.06,1.4-2.82s2.15-1.13,3.66-1.13c1.61,0,2.9,0.38,3.86,1.14s1.45,1.74,1.45,2.95h-3.39
					c0-0.48-0.16-0.88-0.47-1.2s-0.8-0.47-1.46-0.47c-0.57,0-1.01,0.13-1.32,0.39s-0.47,0.59-0.47,0.98c0,0.38,0.18,0.68,0.53,0.91
					s0.96,0.43,1.8,0.6s1.55,0.36,2.13,0.57c1.79,0.66,2.68,1.79,2.68,3.41c0,1.16-0.5,2.09-1.49,2.81s-2.27,1.07-3.84,1.07
					c-1.06,0-2.01-0.19-2.83-0.57s-1.47-0.9-1.94-1.56s-0.7-1.37-0.7-2.14h3.21c0.03,0.6,0.25,1.06,0.67,1.38s0.97,0.48,1.66,0.48
					c0.65,0,1.14-0.12,1.47-0.37S602.25,254.97,602.25,254.57z"/>
				<path d="M614.59,254.57c0-0.41-0.21-0.74-0.62-0.98s-1.07-0.45-1.97-0.64c-3.02-0.63-4.52-1.91-4.52-3.84
					c0-1.13,0.47-2.06,1.4-2.82s2.15-1.13,3.66-1.13c1.61,0,2.9,0.38,3.86,1.14s1.45,1.74,1.45,2.95h-3.39
					c0-0.48-0.16-0.88-0.47-1.2s-0.8-0.47-1.46-0.47c-0.57,0-1.01,0.13-1.32,0.39s-0.47,0.59-0.47,0.98c0,0.38,0.18,0.68,0.53,0.91
					s0.96,0.43,1.8,0.6s1.55,0.36,2.13,0.57c1.79,0.66,2.68,1.79,2.68,3.41c0,1.16-0.5,2.09-1.49,2.81s-2.27,1.07-3.84,1.07
					c-1.06,0-2.01-0.19-2.83-0.57s-1.47-0.9-1.94-1.56s-0.7-1.37-0.7-2.14h3.21c0.03,0.6,0.25,1.06,0.67,1.38s0.97,0.48,1.66,0.48
					c0.65,0,1.14-0.12,1.47-0.37S614.59,254.97,614.59,254.57z"/>
				<path d="M619.54,251.62c0-1.26,0.24-2.38,0.73-3.36s1.18-1.75,2.09-2.29s1.97-0.81,3.17-0.81c1.71,0,3.11,0.52,4.19,1.57
					s1.69,2.47,1.81,4.27l0.02,0.87c0,1.95-0.54,3.51-1.63,4.68s-2.54,1.76-4.37,1.76s-3.29-0.59-4.38-1.76s-1.63-2.77-1.63-4.78
					V251.62z M622.92,251.86c0,1.21,0.23,2.13,0.68,2.76c0.45,0.64,1.1,0.96,1.95,0.96c0.82,0,1.46-0.31,1.92-0.95
					c0.46-0.63,0.69-1.64,0.69-3.02c0-1.18-0.23-2.1-0.69-2.75c-0.46-0.65-1.11-0.97-1.95-0.97c-0.83,0-1.47,0.32-1.92,0.97
					C623.15,249.5,622.92,250.5,622.92,251.86z"/>
				<path d="M640.76,248.57c-0.46-0.06-0.87-0.09-1.22-0.09c-1.28,0-2.12,0.43-2.52,1.3v8.3h-3.39v-12.68h3.2l0.09,1.51
					c0.68-1.16,1.62-1.75,2.82-1.75c0.38,0,0.73,0.05,1.05,0.15L640.76,248.57z"/>
				<path d="M649.26,254.57c0-0.41-0.21-0.74-0.62-0.98s-1.07-0.45-1.97-0.64c-3.02-0.63-4.52-1.91-4.52-3.84
					c0-1.13,0.47-2.06,1.4-2.82s2.15-1.13,3.66-1.13c1.61,0,2.9,0.38,3.86,1.14s1.45,1.74,1.45,2.95h-3.39
					c0-0.48-0.16-0.88-0.47-1.2s-0.8-0.47-1.46-0.47c-0.57,0-1.01,0.13-1.32,0.39s-0.47,0.59-0.47,0.98c0,0.38,0.18,0.68,0.53,0.91
					s0.96,0.43,1.8,0.6s1.55,0.36,2.13,0.57c1.79,0.66,2.68,1.79,2.68,3.41c0,1.16-0.5,2.09-1.49,2.81s-2.27,1.07-3.84,1.07
					c-1.06,0-2.01-0.19-2.83-0.57s-1.47-0.9-1.94-1.56s-0.7-1.37-0.7-2.14h3.21c0.03,0.6,0.25,1.06,0.67,1.38s0.97,0.48,1.66,0.48
					c0.65,0,1.14-0.12,1.47-0.37S649.26,254.97,649.26,254.57z"/>
			</g>
		</g>
		<g>
			<circle cx="506.18" cy="220.57" r="7.5"/>
		</g>
		<g>
			<circle cx="587.18" cy="220.57" r="7.5"/>
		</g>
		<g>
			<circle cx="547.18" cy="109.57" r="7.5"/>
		</g>
		<g>
			<g>
				<path d="M546.18,160.07c-8.39,0-15.72-4.16-19.12-10.85c-3.65-7.16-2.36-15.91,3.53-24.01c0.49-0.67,1.42-0.82,2.1-0.33
					c0.67,0.49,0.82,1.42,0.33,2.1c-5.2,7.16-6.4,14.77-3.28,20.89c2.89,5.68,9.2,9.21,16.45,9.21c6.88,0,15.42-3.79,18.42-11.04
					c2.94-7.1-0.31-15.87-9.15-24.71c-0.59-0.59-0.59-1.54,0-2.12c0.59-0.59,1.54-0.59,2.12,0c13.16,13.16,11.79,23.18,9.8,27.98
					C564.22,154.77,555.51,160.07,546.18,160.07z"/>
			</g>
			<g>
				<g>
					<polygon points="536.62,134.07 540.53,117.17 523.93,122.24 					"/>
				</g>
			</g>
		</g>
		<g>
			<g>
				<path d="M484.6,225.91c-5.16,0-9.76-1.7-13.49-5.07c-7.47-6.76-10.47-19.7-7.12-30.77c2.75-9.1,9.24-15.06,17.81-16.34
					c8.18-1.22,15.17,0.37,20.21,4.6c5.28,4.43,8.3,11.58,8.53,20.15c0.02,0.83-0.63,1.52-1.46,1.54c-0.84,0.01-1.52-0.63-1.54-1.46
					c-0.2-7.69-2.85-14.06-7.46-17.93c-4.43-3.72-10.43-5.04-17.84-3.94c-10.09,1.51-13.97,9.57-15.38,14.24
					c-3.03,10.02-0.39,21.66,6.26,27.68c5.49,4.97,13.03,5.67,21.79,2.03c0.76-0.32,1.64,0.04,1.96,0.81
					c0.32,0.76-0.04,1.64-0.81,1.96C492.05,225.08,488.19,225.91,484.6,225.91z"/>
			</g>
			<g>
				<g>
					<polygon points="500.35,195.03 507.37,210.9 517.6,196.89 					"/>
				</g>
			</g>
		</g>
		<g>
			<g>
				<path d="M608.67,225.87c-3.51,0-7.27-0.74-11.2-2.24c-0.77-0.29-1.16-1.16-0.87-1.94c0.29-0.78,1.16-1.16,1.94-0.87
					c9.18,3.5,16.95,2.55,22.47-2.73c6.47-6.19,8.81-17.77,5.58-27.55c-1.54-4.66-5.68-12.66-16.06-13.94
					c-7.69-0.96-13.86,0.55-18.32,4.48c-4.52,3.98-7.03,10.35-7.05,17.95c0,0.83-0.67,1.49-1.5,1.49c0,0,0,0-0.01,0
					c-0.83,0-1.5-0.68-1.49-1.51c0.03-8.47,2.9-15.64,8.07-20.19c5.06-4.45,12.21-6.25,20.67-5.21c8.78,1.09,15.53,6.91,18.54,15.98
					c3.58,10.82,0.91,23.71-6.35,30.66C619.19,223.98,614.26,225.87,608.67,225.87z"/>
			</g>
			<g>
				<g>
					<polygon points="575.04,197.61 585.62,211.36 592.24,195.33 					"/>
				</g>
			</g>
		</g>
		<g>
			<path d="M546.18,331.07c-81.33,0-147.5-66.17-147.5-147.5s66.17-147.5,147.5-147.5s147.5,66.17,147.5,147.5
				S627.51,331.07,546.18,331.07z M546.18,39.07c-79.68,0-144.5,64.82-144.5,144.5s64.82,144.5,144.5,144.5s144.5-64.82,144.5-144.5
				S625.85,39.07,546.18,39.07z"/>
		</g>
	</g>
	<g>
		<g>
			<path d="M156.17,86.83h-2.8v6.25h-3.52V76.01h6.34c2.02,0,3.57,0.45,4.66,1.35s1.64,2.17,1.64,3.81c0,1.16-0.25,2.13-0.76,2.91
				s-1.27,1.4-2.29,1.86l3.69,6.97v0.16h-3.77L156.17,86.83z M153.37,83.98h2.84c0.88,0,1.57-0.22,2.05-0.67s0.73-1.07,0.73-1.86
				c0-0.8-0.23-1.44-0.69-1.9s-1.16-0.69-2.1-0.69h-2.82V83.98z"/>
			<path d="M164.42,86.62c0-1.26,0.24-2.38,0.73-3.36s1.18-1.75,2.09-2.29s1.97-0.81,3.17-0.81c1.71,0,3.11,0.52,4.19,1.57
				s1.69,2.47,1.81,4.27l0.02,0.87c0,1.95-0.54,3.51-1.63,4.68s-2.54,1.76-4.37,1.76s-3.29-0.59-4.38-1.76s-1.63-2.77-1.63-4.78
				V86.62z M167.8,86.86c0,1.21,0.23,2.13,0.68,2.76s1.1,0.96,1.95,0.96c0.82,0,1.46-0.31,1.92-0.94s0.69-1.64,0.69-3.02
				c0-1.18-0.23-2.1-0.69-2.75s-1.11-0.97-1.95-0.97c-0.83,0-1.47,0.32-1.92,0.97S167.8,85.5,167.8,86.86z"/>
			<path d="M183.79,90.58c0.63,0,1.13-0.17,1.52-0.52s0.59-0.8,0.61-1.37h3.18c-0.01,0.86-0.24,1.65-0.7,2.36s-1.09,1.27-1.89,1.66
				s-1.69,0.59-2.65,0.59c-1.81,0-3.24-0.58-4.29-1.73s-1.57-2.74-1.57-4.78v-0.22c0-1.95,0.52-3.51,1.56-4.68s2.46-1.75,4.28-1.75
				c1.59,0,2.86,0.45,3.81,1.35s1.44,2.1,1.46,3.6h-3.18c-0.02-0.66-0.22-1.2-0.61-1.61c-0.39-0.41-0.91-0.62-1.55-0.62
				c-0.79,0-1.38,0.29-1.79,0.86c-0.4,0.57-0.6,1.51-0.6,2.8v0.35c0,1.31,0.2,2.25,0.6,2.82C182.37,90.29,182.98,90.58,183.79,90.58
				z"/>
			<path d="M195.64,87.99l-1.22,1.22v3.87h-3.39v-18h3.39v9.97l0.66-0.84l3.25-3.81h4.07l-4.58,5.29l4.98,7.39h-3.89L195.64,87.99z"
				/>
		</g>
		<g>
			<g>
				<path d="M87.75,252.06v6.01h-3.52v-17.06h6.66c1.28,0,2.41,0.23,3.38,0.7s1.72,1.13,2.24,2s0.79,1.85,0.79,2.95
					c0,1.67-0.57,2.99-1.72,3.96s-2.73,1.45-4.75,1.45H87.75z M87.75,249.21h3.14c0.93,0,1.64-0.22,2.13-0.66s0.73-1.06,0.73-1.88
					c0-0.84-0.25-1.51-0.74-2.03s-1.17-0.78-2.04-0.8h-3.22V249.21z"/>
				<path d="M106.71,258.07c-0.16-0.3-0.27-0.68-0.34-1.14c-0.82,0.91-1.89,1.37-3.2,1.37c-1.24,0-2.27-0.36-3.09-1.08
					s-1.22-1.63-1.22-2.72c0-1.34,0.5-2.38,1.49-3.09s2.44-1.08,4.32-1.09h1.56v-0.73c0-0.59-0.15-1.05-0.45-1.41
					s-0.78-0.53-1.42-0.53c-0.57,0-1.02,0.14-1.34,0.41s-0.49,0.65-0.49,1.13h-3.39c0-0.73,0.23-1.41,0.68-2.04s1.09-1.12,1.92-1.47
					s1.76-0.53,2.79-0.53c1.56,0,2.8,0.39,3.72,1.18s1.38,1.89,1.38,3.31v5.5c0.01,1.2,0.18,2.11,0.5,2.73v0.2H106.71z
					 M103.91,255.72c0.5,0,0.96-0.11,1.38-0.33s0.73-0.52,0.94-0.9v-2.18h-1.27c-1.7,0-2.6,0.59-2.71,1.76l-0.01,0.2
					c0,0.42,0.15,0.77,0.45,1.04S103.39,255.72,103.91,255.72z"/>
				<path d="M123.64,251.85c0,1.95-0.44,3.52-1.33,4.69s-2.08,1.76-3.59,1.76c-1.28,0-2.32-0.45-3.11-1.34v5.98h-3.39v-17.55h3.14
					l0.12,1.24c0.82-0.98,1.89-1.48,3.21-1.48c1.56,0,2.78,0.58,3.64,1.73s1.3,2.75,1.3,4.78V251.85z M120.26,251.6
					c0-1.18-0.21-2.09-0.63-2.73s-1.03-0.96-1.82-0.96c-1.06,0-1.79,0.41-2.19,1.22v5.19c0.41,0.84,1.15,1.25,2.21,1.25
					C119.45,255.58,120.26,254.25,120.26,251.6z"/>
				<path d="M131.58,258.31c-1.86,0-3.37-0.57-4.54-1.71s-1.75-2.66-1.75-4.56v-0.33c0-1.27,0.25-2.41,0.74-3.42
					s1.19-1.78,2.09-2.32s1.93-0.81,3.09-0.81c1.73,0,3.1,0.55,4.1,1.64s1.49,2.64,1.49,4.65v1.38h-8.07
					c0.11,0.83,0.44,1.49,0.99,1.99s1.25,0.75,2.09,0.75c1.3,0,2.32-0.47,3.06-1.42l1.66,1.86c-0.51,0.72-1.2,1.28-2.06,1.68
					S132.63,258.31,131.58,258.31z M131.19,247.89c-0.67,0-1.22,0.23-1.63,0.68c-0.42,0.46-0.69,1.11-0.8,1.95h4.71v-0.27
					c-0.02-0.75-0.22-1.34-0.61-1.75C132.46,248.1,131.91,247.89,131.19,247.89z"/>
				<path d="M145.84,248.57c-0.46-0.06-0.87-0.09-1.22-0.09c-1.28,0-2.12,0.43-2.52,1.3v8.3h-3.39v-12.68h3.2l0.09,1.51
					c0.68-1.16,1.62-1.75,2.82-1.75c0.38,0,0.73,0.05,1.05,0.15L145.84,248.57z"/>
			</g>
			<g>
				<path d="M199.32,253.6c0-0.66-0.23-1.17-0.7-1.53s-1.31-0.73-2.53-1.13s-2.18-0.78-2.89-1.17c-1.94-1.05-2.91-2.46-2.91-4.23
					c0-0.92,0.26-1.74,0.78-2.47s1.27-1.29,2.24-1.69s2.06-0.61,3.28-0.61c1.22,0,2.3,0.22,3.26,0.66s1.69,1.06,2.22,1.87
					s0.79,1.72,0.79,2.74h-3.52c0-0.78-0.25-1.39-0.74-1.82s-1.18-0.65-2.07-0.65c-0.86,0-1.53,0.18-2,0.54s-0.71,0.84-0.71,1.44
					c0,0.55,0.28,1.02,0.84,1.39s1.38,0.73,2.47,1.05c2,0.6,3.46,1.35,4.37,2.24s1.37,2,1.37,3.33c0,1.48-0.56,2.63-1.68,3.47
					s-2.62,1.26-4.51,1.26c-1.31,0-2.51-0.24-3.59-0.72s-1.9-1.14-2.47-1.97s-0.85-1.8-0.85-2.91h3.53c0,1.88,1.13,2.82,3.38,2.82
					c0.84,0,1.49-0.17,1.96-0.51S199.32,254.21,199.32,253.6z"/>
				<path d="M210.28,255.58c0.63,0,1.13-0.17,1.52-0.52s0.59-0.8,0.61-1.37h3.18c-0.01,0.86-0.24,1.65-0.7,2.36
					s-1.09,1.27-1.89,1.66s-1.69,0.59-2.65,0.59c-1.81,0-3.24-0.58-4.29-1.73s-1.57-2.74-1.57-4.78v-0.22
					c0-1.95,0.52-3.51,1.56-4.68s2.46-1.75,4.28-1.75c1.59,0,2.86,0.45,3.81,1.35s1.44,2.1,1.46,3.6h-3.18
					c-0.02-0.66-0.22-1.2-0.61-1.61c-0.39-0.41-0.91-0.62-1.55-0.62c-0.79,0-1.38,0.29-1.79,0.86c-0.4,0.57-0.6,1.51-0.6,2.8v0.35
					c0,1.31,0.2,2.25,0.6,2.82C208.86,255.29,209.47,255.58,210.28,255.58z"/>
				<path d="M217.5,242.11c0-0.51,0.17-0.93,0.51-1.25s0.8-0.49,1.39-0.49c0.58,0,1.04,0.16,1.38,0.49s0.52,0.75,0.52,1.25
					c0,0.52-0.17,0.94-0.52,1.27s-0.81,0.49-1.38,0.49s-1.03-0.16-1.38-0.49S217.5,242.63,217.5,242.11z M221.1,258.07h-3.4v-12.68
					h3.4V258.07z"/>
				<path d="M230.75,254.57c0-0.41-0.21-0.74-0.62-0.98s-1.07-0.45-1.97-0.64c-3.02-0.63-4.52-1.91-4.52-3.84
					c0-1.13,0.47-2.06,1.4-2.82s2.15-1.13,3.66-1.13c1.61,0,2.9,0.38,3.86,1.14s1.45,1.74,1.45,2.95h-3.39
					c0-0.48-0.16-0.88-0.47-1.2s-0.8-0.47-1.46-0.47c-0.57,0-1.01,0.13-1.32,0.39s-0.47,0.59-0.47,0.98c0,0.38,0.18,0.68,0.53,0.91
					s0.96,0.43,1.8,0.6s1.55,0.36,2.13,0.57c1.79,0.66,2.68,1.79,2.68,3.41c0,1.16-0.5,2.09-1.49,2.81s-2.27,1.07-3.84,1.07
					c-1.06,0-2.01-0.19-2.83-0.57s-1.47-0.9-1.94-1.56s-0.7-1.37-0.7-2.14h3.21c0.03,0.6,0.25,1.06,0.67,1.38s0.97,0.48,1.66,0.48
					c0.65,0,1.14-0.12,1.47-0.37S230.75,254.97,230.75,254.57z"/>
				<path d="M243.09,254.57c0-0.41-0.21-0.74-0.62-0.98s-1.07-0.45-1.97-0.64c-3.02-0.63-4.52-1.91-4.52-3.84
					c0-1.13,0.47-2.06,1.4-2.82s2.15-1.13,3.66-1.13c1.61,0,2.9,0.38,3.86,1.14s1.45,1.74,1.45,2.95h-3.39
					c0-0.48-0.16-0.88-0.47-1.2s-0.8-0.47-1.46-0.47c-0.57,0-1.01,0.13-1.32,0.39s-0.47,0.59-0.47,0.98c0,0.38,0.18,0.68,0.53,0.91
					s0.96,0.43,1.8,0.6s1.55,0.36,2.13,0.57c1.79,0.66,2.68,1.79,2.68,3.41c0,1.16-0.5,2.09-1.49,2.81s-2.27,1.07-3.84,1.07
					c-1.06,0-2.01-0.19-2.83-0.57s-1.47-0.9-1.94-1.56s-0.7-1.37-0.7-2.14h3.21c0.03,0.6,0.25,1.06,0.67,1.38s0.97,0.48,1.66,0.48
					c0.65,0,1.14-0.12,1.47-0.37S243.09,254.97,243.09,254.57z"/>
				<path d="M248.04,251.62c0-1.26,0.24-2.38,0.73-3.36s1.18-1.75,2.09-2.29s1.97-0.81,3.17-0.81c1.71,0,3.11,0.52,4.19,1.57
					s1.69,2.47,1.81,4.27l0.02,0.87c0,1.95-0.54,3.51-1.63,4.68s-2.54,1.76-4.37,1.76s-3.29-0.59-4.38-1.76s-1.63-2.77-1.63-4.78
					V251.62z M251.42,251.86c0,1.21,0.23,2.13,0.68,2.76c0.45,0.64,1.1,0.96,1.95,0.96c0.82,0,1.46-0.31,1.92-0.95
					c0.46-0.63,0.69-1.64,0.69-3.02c0-1.18-0.23-2.1-0.69-2.75c-0.46-0.65-1.11-0.97-1.95-0.97c-0.83,0-1.47,0.32-1.92,0.97
					C251.65,249.5,251.42,250.5,251.42,251.86z"/>
				<path d="M269.26,248.57c-0.46-0.06-0.87-0.09-1.22-0.09c-1.28,0-2.12,0.43-2.52,1.3v8.3h-3.39v-12.68h3.2l0.09,1.51
					c0.68-1.16,1.62-1.75,2.82-1.75c0.38,0,0.73,0.05,1.05,0.15L269.26,248.57z"/>
				<path d="M277.76,254.57c0-0.41-0.21-0.74-0.62-0.98s-1.07-0.45-1.97-0.64c-3.02-0.63-4.52-1.91-4.52-3.84
					c0-1.13,0.47-2.06,1.4-2.82s2.15-1.13,3.66-1.13c1.61,0,2.9,0.38,3.86,1.14s1.45,1.74,1.45,2.95h-3.39
					c0-0.48-0.16-0.88-0.47-1.2s-0.8-0.47-1.46-0.47c-0.57,0-1.01,0.13-1.32,0.39s-0.47,0.59-0.47,0.98c0,0.38,0.18,0.68,0.53,0.91
					s0.96,0.43,1.8,0.6s1.55,0.36,2.13,0.57c1.79,0.66,2.68,1.79,2.68,3.41c0,1.16-0.5,2.09-1.49,2.81s-2.27,1.07-3.84,1.07
					c-1.06,0-2.01-0.19-2.83-0.57s-1.47-0.9-1.94-1.56s-0.7-1.37-0.7-2.14h3.21c0.03,0.6,0.25,1.06,0.67,1.38s0.97,0.48,1.66,0.48
					c0.65,0,1.14-0.12,1.47-0.37S277.76,254.97,277.76,254.57z"/>
			</g>
		</g>
		<g>
			<circle cx="114.68" cy="220.57" r="7.5"/>
		</g>
		<g>
			<circle cx="235.68" cy="220.57" r="7.5"/>
		</g>
		<g>
			<circle cx="175.68" cy="109.57" r="7.5"/>
		</g>
		<g>
			<path d="M174.68,331.07c-81.33,0-147.5-66.17-147.5-147.5s66.17-147.5,147.5-147.5s147.5,66.17,147.5,147.5
				S256.01,331.07,174.68,331.07z M174.68,39.07c-79.68,0-144.5,64.82-144.5,144.5s64.82,144.5,144.5,144.5s144.5-64.82,144.5-144.5
				S254.35,39.07,174.68,39.07z"/>
		</g>
		<g>
			<g>
				<path d="M119.67,208.07c-0.26,0-0.53-0.07-0.77-0.22c-0.71-0.43-0.94-1.35-0.51-2.06l45.54-75.32c0.43-0.71,1.35-0.93,2.06-0.51
					c0.71,0.43,0.94,1.35,0.51,2.06l-45.54,75.32C120.68,207.81,120.18,208.07,119.67,208.07z"/>
			</g>
			<g>
				<g>
					<polygon points="171.33,137.92 171.68,120.57 156.48,128.94 					"/>
				</g>
			</g>
		</g>
		<g>
			<g>
				<path d="M225.38,200.29c-0.52,0-1.02-0.27-1.3-0.74l-45.7-78.22c-0.42-0.72-0.18-1.63,0.54-2.05c0.72-0.42,1.63-0.18,2.05,0.54
					l45.7,78.22c0.42,0.72,0.18,1.63-0.54,2.05C225.9,200.23,225.64,200.29,225.38,200.29z"/>
			</g>
			<g>
				<g>
					<polygon points="216.61,200.98 231.68,209.57 231.59,192.22 					"/>
				</g>
			</g>
		</g>
		<g>
			<g>
				<path d="M221.68,222.07h-83.51c-0.83,0-1.5-0.67-1.5-1.5s0.67-1.5,1.5-1.5h83.51c0.83,0,1.5,0.67,1.5,1.5
					S222.5,222.07,221.68,222.07z"/>
			</g>
			<g>
				<g>
					<polygon points="140.7,211.9 125.68,220.57 140.7,229.25 					"/>
				</g>
			</g>
		</g>
	</g>
	<g>
		<path class="st0" d="M72.05,364.38h-4.79v13.03h-3.22v-13.03h-4.73v-2.61h12.74V364.38z"/>
		<path class="st0" d="M76.71,367.06c0.82-0.99,1.86-1.48,3.1-1.48c2.52,0,3.8,1.46,3.83,4.39v7.44h-3.1v-7.36
			c0-0.67-0.14-1.16-0.43-1.48c-0.29-0.32-0.76-0.48-1.43-0.48c-0.91,0-1.57,0.35-1.98,1.05v8.26h-3.1v-16.5h3.1V367.06z"/>
		<path class="st0" d="M91.34,377.63c-1.7,0-3.09-0.52-4.16-1.57c-1.07-1.05-1.61-2.44-1.61-4.18v-0.3c0-1.17,0.23-2.21,0.68-3.13
			c0.45-0.92,1.09-1.63,1.92-2.13c0.83-0.5,1.77-0.75,2.83-0.75c1.59,0,2.84,0.5,3.75,1.5s1.37,2.42,1.37,4.26v1.27h-7.4
			c0.1,0.76,0.4,1.37,0.91,1.83s1.14,0.69,1.92,0.69c1.2,0,2.13-0.43,2.8-1.3l1.53,1.71c-0.47,0.66-1.1,1.17-1.89,1.54
			C93.19,377.44,92.31,377.63,91.34,377.63z M90.99,368.08c-0.62,0-1.12,0.21-1.5,0.63c-0.38,0.42-0.63,1.01-0.74,1.79h4.32v-0.25
			c-0.01-0.69-0.2-1.22-0.56-1.6C92.16,368.27,91.65,368.08,90.99,368.08z"/>
		<path class="st0" d="M115.75,372.9l2.11-11.13h3.21l-3.47,15.64h-3.24l-2.55-10.46l-2.55,10.46h-3.24l-3.47-15.64h3.21l2.12,11.11
			l2.58-11.11h2.73L115.75,372.9z"/>
		<path class="st0" d="M126.23,377.41h-3.22v-15.64h3.22V377.41z"/>
		<path class="st0" d="M141.94,377.41h-3.22l-6.27-10.29v10.29h-3.22v-15.64h3.22l6.28,10.31v-10.31h3.21V377.41z"/>
		<path class="st0" d="M156.56,368.7c-0.42-0.06-0.79-0.09-1.12-0.09c-1.17,0-1.94,0.4-2.31,1.19v7.61h-3.1v-11.62h2.93l0.09,1.39
			c0.62-1.07,1.49-1.6,2.59-1.6c0.34,0,0.67,0.05,0.97,0.14L156.56,368.7z"/>
		<path class="st0" d="M163.2,377.63c-1.7,0-3.09-0.52-4.16-1.57c-1.07-1.05-1.61-2.44-1.61-4.18v-0.3c0-1.17,0.23-2.21,0.68-3.13
			c0.45-0.92,1.09-1.63,1.92-2.13c0.83-0.5,1.77-0.75,2.83-0.75c1.59,0,2.84,0.5,3.75,1.5s1.37,2.42,1.37,4.26v1.27h-7.4
			c0.1,0.76,0.4,1.37,0.91,1.83s1.14,0.69,1.92,0.69c1.2,0,2.13-0.43,2.8-1.3l1.53,1.71c-0.47,0.66-1.1,1.17-1.89,1.54
			C165.05,377.44,164.17,377.63,163.2,377.63z M162.84,368.08c-0.62,0-1.12,0.21-1.5,0.63c-0.38,0.42-0.63,1.01-0.74,1.79h4.32
			v-0.25c-0.01-0.69-0.2-1.22-0.56-1.6C164.01,368.27,163.5,368.08,162.84,368.08z"/>
		<path class="st0" d="M173.02,377.41h-3.12v-16.5h3.12V377.41z"/>
		<path class="st0" d="M182.31,377.41c-0.14-0.28-0.25-0.63-0.31-1.04c-0.75,0.84-1.73,1.26-2.93,1.26c-1.14,0-2.08-0.33-2.83-0.99
			c-0.75-0.66-1.12-1.49-1.12-2.49c0-1.23,0.46-2.18,1.37-2.84s2.23-0.99,3.96-1h1.43v-0.67c0-0.54-0.14-0.97-0.41-1.29
			c-0.28-0.32-0.71-0.48-1.31-0.48c-0.52,0-0.93,0.13-1.23,0.38c-0.3,0.25-0.45,0.59-0.45,1.03h-3.1c0-0.67,0.21-1.3,0.62-1.87
			c0.42-0.57,1-1.02,1.76-1.35c0.76-0.33,1.61-0.49,2.56-0.49c1.43,0,2.57,0.36,3.41,1.08c0.84,0.72,1.26,1.73,1.26,3.03v5.04
			c0.01,1.1,0.16,1.94,0.46,2.5v0.18H182.31z M179.74,375.25c0.46,0,0.88-0.1,1.27-0.31c0.39-0.21,0.67-0.48,0.86-0.82v-2h-1.16
			c-1.55,0-2.38,0.54-2.48,1.61l-0.01,0.18c0,0.39,0.14,0.71,0.41,0.96C178.9,375.13,179.27,375.25,179.74,375.25z"/>
		<path class="st0" d="M191.09,362.93v2.86h1.99v2.28h-1.99v5.8c0,0.43,0.08,0.74,0.25,0.92c0.16,0.19,0.48,0.28,0.95,0.28
			c0.34,0,0.65-0.03,0.91-0.08v2.35c-0.61,0.19-1.24,0.28-1.88,0.28c-2.18,0-3.29-1.1-3.33-3.3v-6.26h-1.7v-2.28h1.7v-2.86H191.09z"
			/>
		<path class="st0" d="M194.78,362.78c0-0.47,0.16-0.85,0.47-1.15s0.74-0.45,1.27-0.45c0.53,0,0.95,0.15,1.27,0.45
			c0.31,0.3,0.47,0.68,0.47,1.15c0,0.47-0.16,0.86-0.48,1.16c-0.32,0.3-0.74,0.45-1.26,0.45c-0.52,0-0.94-0.15-1.26-0.45
			C194.94,363.64,194.78,363.26,194.78,362.78z M198.08,377.41h-3.12v-11.62h3.12V377.41z"/>
		<path class="st0" d="M200.15,371.49c0-1.15,0.22-2.18,0.67-3.08c0.44-0.9,1.08-1.6,1.92-2.09c0.83-0.49,1.8-0.74,2.91-0.74
			c1.57,0,2.85,0.48,3.84,1.44c0.99,0.96,1.54,2.26,1.66,3.91l0.02,0.79c0,1.78-0.5,3.21-1.49,4.29c-1,1.08-2.33,1.62-4.01,1.62
			s-3.01-0.54-4.01-1.61s-1.5-2.54-1.5-4.38V371.49z M203.26,371.72c0,1.1,0.21,1.95,0.62,2.53c0.42,0.58,1.01,0.88,1.78,0.88
			c0.75,0,1.34-0.29,1.76-0.87c0.42-0.58,0.63-1.5,0.63-2.77c0-1.08-0.21-1.92-0.63-2.52c-0.42-0.59-1.02-0.89-1.78-0.89
			c-0.76,0-1.35,0.3-1.76,0.89C203.46,369.56,203.26,370.47,203.26,371.72z"/>
		<path class="st0" d="M215.93,365.79l0.1,1.34c0.83-1.04,1.94-1.56,3.34-1.56c1.23,0,2.15,0.36,2.75,1.08s0.91,1.8,0.92,3.24v7.51
			h-3.1v-7.43c0-0.66-0.14-1.14-0.43-1.43c-0.29-0.3-0.76-0.45-1.43-0.45c-0.87,0-1.53,0.37-1.97,1.12v8.2h-3.1v-11.62H215.93z"/>
		<path class="st0" d="M240.98,373.19l1.53-7.4h3l-2.96,11.62h-2.6l-2.2-7.32l-2.2,7.32h-2.59l-2.96-11.62h3l1.51,7.39l2.13-7.39
			h2.25L240.98,373.19z"/>
		<path class="st0" d="M247.02,362.78c0-0.47,0.16-0.85,0.47-1.15s0.74-0.45,1.27-0.45c0.53,0,0.95,0.15,1.27,0.45
			c0.31,0.3,0.47,0.68,0.47,1.15c0,0.47-0.16,0.86-0.48,1.16c-0.32,0.3-0.74,0.45-1.26,0.45c-0.52,0-0.94-0.15-1.26-0.45
			C247.18,363.64,247.02,363.26,247.02,362.78z M250.32,377.41h-3.12v-11.62h3.12V377.41z"/>
		<path class="st0" d="M256.59,362.93v2.86h1.99v2.28h-1.99v5.8c0,0.43,0.08,0.74,0.25,0.92c0.16,0.19,0.48,0.28,0.95,0.28
			c0.34,0,0.65-0.03,0.91-0.08v2.35c-0.61,0.19-1.24,0.28-1.88,0.28c-2.18,0-3.29-1.1-3.33-3.3v-6.26h-1.7v-2.28h1.7v-2.86H256.59z"
			/>
		<path class="st0" d="M263.34,367.06c0.82-0.99,1.86-1.48,3.1-1.48c2.52,0,3.8,1.46,3.83,4.39v7.44h-3.1v-7.36
			c0-0.67-0.14-1.16-0.43-1.48c-0.29-0.32-0.76-0.48-1.43-0.48c-0.91,0-1.57,0.35-1.98,1.05v8.26h-3.1v-16.5h3.1V367.06z"/>
		<path class="st0" d="M272.6,362.78c0-0.47,0.16-0.85,0.47-1.15s0.74-0.45,1.27-0.45c0.53,0,0.95,0.15,1.27,0.45
			c0.31,0.3,0.47,0.68,0.47,1.15c0,0.47-0.16,0.86-0.48,1.16c-0.32,0.3-0.74,0.45-1.26,0.45c-0.52,0-0.94-0.15-1.26-0.45
			C272.76,363.64,272.6,363.26,272.6,362.78z M275.9,377.41h-3.12v-11.62h3.12V377.41z"/>
		<path class="st0" d="M281.31,365.79l0.1,1.34c0.83-1.04,1.94-1.56,3.34-1.56c1.23,0,2.15,0.36,2.75,1.08s0.91,1.8,0.92,3.24v7.51
			h-3.1v-7.43c0-0.66-0.14-1.14-0.43-1.43c-0.29-0.3-0.76-0.45-1.43-0.45c-0.87,0-1.53,0.37-1.97,1.12v8.2h-3.1v-11.62H281.31z"/>
		<path class="st0" d="M92.37,389.33v2.86h1.99v2.28h-1.99v5.8c0,0.43,0.08,0.74,0.25,0.92c0.16,0.19,0.48,0.28,0.95,0.28
			c0.34,0,0.65-0.03,0.91-0.08v2.35c-0.61,0.19-1.24,0.28-1.88,0.28c-2.18,0-3.29-1.1-3.33-3.3v-6.26h-1.7v-2.28h1.7v-2.86H92.37z"
			/>
		<path class="st0" d="M99.12,393.46c0.82-0.99,1.86-1.48,3.1-1.48c2.52,0,3.8,1.46,3.83,4.39v7.44h-3.1v-7.36
			c0-0.67-0.14-1.16-0.43-1.48c-0.29-0.32-0.76-0.48-1.43-0.48c-0.91,0-1.57,0.35-1.98,1.05v8.26h-3.1v-16.5h3.1V393.46z"/>
		<path class="st0" d="M113.75,404.03c-1.7,0-3.09-0.52-4.16-1.57c-1.07-1.05-1.61-2.44-1.61-4.18v-0.3c0-1.17,0.23-2.21,0.68-3.13
			c0.45-0.92,1.09-1.63,1.92-2.13c0.83-0.5,1.77-0.75,2.83-0.75c1.59,0,2.84,0.5,3.75,1.5s1.37,2.42,1.37,4.26v1.27h-7.4
			c0.1,0.76,0.4,1.37,0.91,1.83s1.14,0.69,1.92,0.69c1.2,0,2.13-0.43,2.8-1.3l1.53,1.71c-0.47,0.66-1.1,1.17-1.89,1.54
			C115.59,403.84,114.71,404.03,113.75,404.03z M113.39,394.48c-0.62,0-1.12,0.21-1.5,0.63c-0.38,0.42-0.63,1.01-0.74,1.79h4.32
			v-0.25c-0.01-0.69-0.2-1.22-0.56-1.6C114.56,394.67,114.05,394.48,113.39,394.48z"/>
		<path class="st0" d="M132.06,400.6c0-0.38-0.19-0.68-0.56-0.9c-0.38-0.22-0.98-0.41-1.81-0.58c-2.76-0.58-4.15-1.75-4.15-3.52
			c0-1.03,0.43-1.89,1.28-2.58c0.86-0.69,1.97-1.04,3.36-1.04c1.48,0,2.65,0.35,3.54,1.04c0.88,0.69,1.33,1.6,1.33,2.71h-3.1
			c0-0.44-0.14-0.81-0.43-1.1c-0.29-0.29-0.73-0.44-1.34-0.44c-0.52,0-0.93,0.12-1.21,0.35c-0.29,0.24-0.43,0.54-0.43,0.9
			c0,0.34,0.16,0.62,0.49,0.83c0.33,0.21,0.88,0.39,1.65,0.55c0.77,0.15,1.42,0.33,1.96,0.52c1.64,0.6,2.46,1.64,2.46,3.13
			c0,1.06-0.46,1.92-1.36,2.57c-0.91,0.65-2.08,0.98-3.52,0.98c-0.97,0-1.84-0.17-2.59-0.52c-0.76-0.35-1.35-0.82-1.78-1.43
			c-0.43-0.61-0.64-1.26-0.64-1.96h2.94c0.03,0.55,0.23,0.97,0.61,1.27c0.38,0.29,0.89,0.44,1.53,0.44c0.59,0,1.04-0.11,1.35-0.34
			C131.91,401.26,132.06,400.97,132.06,400.6z"/>
		<path class="st0" d="M142.43,404.03c-1.7,0-3.09-0.52-4.16-1.57c-1.07-1.05-1.61-2.44-1.61-4.18v-0.3c0-1.17,0.23-2.21,0.68-3.13
			c0.45-0.92,1.09-1.63,1.92-2.13c0.83-0.5,1.77-0.75,2.83-0.75c1.59,0,2.84,0.5,3.75,1.5s1.37,2.42,1.37,4.26v1.27h-7.4
			c0.1,0.76,0.4,1.37,0.91,1.83s1.14,0.69,1.92,0.69c1.2,0,2.13-0.43,2.8-1.3l1.53,1.71c-0.47,0.66-1.1,1.17-1.89,1.54
			C144.28,403.84,143.4,404.03,142.43,404.03z M142.07,394.48c-0.62,0-1.12,0.21-1.5,0.63c-0.38,0.42-0.63,1.01-0.74,1.79h4.32
			v-0.25c-0.01-0.69-0.2-1.22-0.56-1.6C143.24,394.67,142.73,394.48,142.07,394.48z"/>
		<path class="st0" d="M152.69,389.33v2.86h1.99v2.28h-1.99v5.8c0,0.43,0.08,0.74,0.25,0.92c0.16,0.19,0.48,0.28,0.95,0.28
			c0.34,0,0.65-0.03,0.91-0.08v2.35c-0.61,0.19-1.24,0.28-1.88,0.28c-2.18,0-3.29-1.1-3.33-3.3v-6.26h-1.7v-2.28h1.7v-2.86H152.69z"
			/>
		<path class="st0" d="M161.4,397.89c0-1.15,0.22-2.18,0.67-3.08c0.44-0.9,1.08-1.6,1.92-2.09c0.83-0.49,1.8-0.74,2.91-0.74
			c1.57,0,2.85,0.48,3.84,1.44c0.99,0.96,1.54,2.26,1.66,3.91l0.02,0.79c0,1.78-0.5,3.21-1.49,4.29c-1,1.08-2.33,1.62-4.01,1.62
			s-3.01-0.54-4.01-1.61s-1.5-2.54-1.5-4.38V397.89z M164.5,398.12c0,1.1,0.21,1.95,0.62,2.53c0.42,0.58,1.01,0.88,1.78,0.88
			c0.75,0,1.34-0.29,1.76-0.87c0.42-0.58,0.63-1.5,0.63-2.77c0-1.08-0.21-1.92-0.63-2.52c-0.42-0.59-1.02-0.89-1.78-0.89
			c-0.76,0-1.35,0.3-1.76,0.89C164.71,395.96,164.5,396.87,164.5,398.12z"/>
		<path class="st0" d="M175.17,403.81v-9.35h-1.73v-2.28h1.73v-0.99c0-1.3,0.37-2.31,1.12-3.04c0.75-0.72,1.8-1.08,3.14-1.08
			c0.43,0,0.96,0.07,1.58,0.21l-0.03,2.41c-0.26-0.06-0.57-0.1-0.95-0.1c-1.17,0-1.75,0.55-1.75,1.64v0.93h2.31v2.28h-2.31v9.35
			H175.17z"/>
		<path class="st0" d="M192.1,388.17l4.02,11.34l4-11.34h4.23v15.64h-3.23v-4.28l0.32-7.38l-4.22,11.66H195l-4.21-11.64l0.32,7.37
			v4.28h-3.22v-15.64H192.1z"/>
		<path class="st0" d="M220.01,396.35c0,1.54-0.27,2.89-0.82,4.05c-0.54,1.16-1.32,2.06-2.34,2.69c-1.01,0.63-2.18,0.95-3.49,0.95
			c-1.3,0-2.45-0.31-3.47-0.93c-1.02-0.62-1.8-1.51-2.36-2.67c-0.56-1.16-0.84-2.49-0.85-3.99v-0.77c0-1.54,0.28-2.9,0.83-4.07
			c0.55-1.17,1.34-2.07,2.35-2.7c1.01-0.63,2.17-0.94,3.48-0.94c1.3,0,2.46,0.31,3.48,0.94c1.01,0.63,1.8,1.53,2.35,2.7
			c0.55,1.17,0.83,2.52,0.83,4.05V396.35z M216.74,395.64c0-1.64-0.29-2.89-0.88-3.74c-0.59-0.85-1.43-1.28-2.51-1.28
			c-1.08,0-1.92,0.42-2.5,1.26c-0.59,0.84-0.88,2.08-0.89,3.7v0.76c0,1.6,0.29,2.84,0.88,3.72c0.59,0.88,1.43,1.32,2.54,1.32
			c1.08,0,1.91-0.42,2.49-1.27c0.58-0.85,0.87-2.08,0.88-3.71V395.64z"/>
		<path class="st0" d="M227.89,399.94l3.54-11.76h3.59l-5.45,15.64h-3.36l-5.42-15.64h3.58L227.89,399.94z"/>
		<path class="st0" d="M245.91,397.04h-6.19v4.19h7.26v2.59H236.5v-15.64h10.46v2.61h-7.24v3.73h6.19V397.04z"/>
		<path class="st0" d="M256.98,399.71c0-0.61-0.21-1.08-0.64-1.4c-0.43-0.33-1.2-0.67-2.32-1.03c-1.12-0.36-2-0.72-2.65-1.07
			c-1.78-0.96-2.66-2.25-2.66-3.88c0-0.84,0.24-1.6,0.71-2.26c0.48-0.66,1.16-1.18,2.05-1.55s1.89-0.56,3-0.56
			c1.12,0,2.11,0.2,2.99,0.61c0.87,0.4,1.55,0.98,2.04,1.71s0.73,1.58,0.73,2.51h-3.22c0-0.72-0.23-1.27-0.68-1.67
			c-0.45-0.4-1.08-0.6-1.9-0.6c-0.79,0-1.4,0.17-1.84,0.5c-0.44,0.33-0.66,0.77-0.66,1.32c0,0.51,0.26,0.93,0.77,1.28
			c0.51,0.34,1.27,0.67,2.26,0.97c1.83,0.55,3.17,1.24,4.01,2.05s1.26,1.83,1.26,3.05c0,1.35-0.51,2.42-1.54,3.19
			c-1.02,0.77-2.4,1.15-4.14,1.15c-1.2,0-2.3-0.22-3.29-0.66c-0.99-0.44-1.74-1.04-2.26-1.81c-0.52-0.77-0.78-1.65-0.78-2.66h3.23
			c0,1.73,1.03,2.59,3.09,2.59c0.77,0,1.36-0.16,1.79-0.47C256.77,400.7,256.98,400.27,256.98,399.71z"/>
	</g>
	<g>
		<path class="st0" d="M434.66,364.38h-4.79v13.03h-3.22v-13.03h-4.73v-2.61h12.74V364.38z"/>
		<path class="st0" d="M439.33,367.06c0.82-0.99,1.86-1.48,3.1-1.48c2.52,0,3.8,1.46,3.83,4.39v7.44h-3.1v-7.36
			c0-0.67-0.14-1.16-0.43-1.48c-0.29-0.32-0.76-0.48-1.43-0.48c-0.91,0-1.57,0.35-1.98,1.05v8.26h-3.1v-16.5h3.1V367.06z"/>
		<path class="st0" d="M453.96,377.63c-1.7,0-3.09-0.52-4.16-1.57c-1.07-1.05-1.61-2.44-1.61-4.18v-0.3c0-1.17,0.23-2.21,0.68-3.13
			c0.45-0.92,1.09-1.63,1.92-2.13c0.83-0.5,1.77-0.75,2.83-0.75c1.59,0,2.84,0.5,3.75,1.5s1.37,2.42,1.37,4.26v1.27h-7.4
			c0.1,0.76,0.4,1.37,0.91,1.83s1.14,0.69,1.92,0.69c1.2,0,2.13-0.43,2.8-1.3l1.53,1.71c-0.47,0.66-1.1,1.17-1.89,1.54
			C455.8,377.44,454.92,377.63,453.96,377.63z M453.6,368.08c-0.62,0-1.12,0.21-1.5,0.63c-0.38,0.42-0.63,1.01-0.74,1.79h4.32v-0.25
			c-0.01-0.69-0.2-1.22-0.56-1.6C454.77,368.27,454.26,368.08,453.6,368.08z"/>
		<path class="st0" d="M466.18,377.41v-15.64h4.81c1.38,0,2.6,0.31,3.69,0.93c1.08,0.62,1.93,1.5,2.54,2.64
			c0.61,1.14,0.91,2.44,0.91,3.89v0.72c0,1.45-0.3,2.75-0.9,3.88c-0.6,1.13-1.44,2.01-2.53,2.63c-1.09,0.62-2.32,0.94-3.68,0.95
			H466.18z M469.4,364.38v10.44h1.56c1.26,0,2.22-0.41,2.89-1.24s1.01-2,1.02-3.53v-0.83c0-1.59-0.33-2.79-0.99-3.62
			c-0.66-0.82-1.62-1.23-2.89-1.23H469.4z"/>
		<path class="st0" d="M486.27,371.69h-2.57v5.73h-3.22v-15.64h5.81c1.85,0,3.27,0.41,4.28,1.24c1,0.82,1.5,1.99,1.5,3.49
			c0,1.07-0.23,1.96-0.69,2.67c-0.46,0.71-1.16,1.28-2.1,1.7l3.38,6.39v0.15h-3.46L486.27,371.69z M483.7,369.08h2.6
			c0.81,0,1.44-0.21,1.88-0.62c0.44-0.41,0.67-0.98,0.67-1.7c0-0.74-0.21-1.32-0.63-1.74s-1.06-0.63-1.93-0.63h-2.59V369.08z"/>
		<path class="st0" d="M503.35,374.19h-5.65l-1.07,3.22h-3.43l5.82-15.64h2.99l5.85,15.64h-3.43L503.35,374.19z M498.57,371.58h3.91
			l-1.97-5.85L498.57,371.58z"/>
		<path class="st0" d="M521.08,372.9l2.11-11.13h3.21l-3.47,15.64h-3.24l-2.55-10.46l-2.55,10.46h-3.24l-3.47-15.64h3.21l2.12,11.11
			l2.58-11.11h2.73L521.08,372.9z"/>
		<path class="st0" d="M539.95,368.7c-0.42-0.06-0.79-0.09-1.12-0.09c-1.17,0-1.94,0.4-2.31,1.19v7.61h-3.1v-11.62h2.93l0.09,1.39
			c0.62-1.07,1.49-1.6,2.59-1.6c0.34,0,0.67,0.05,0.97,0.14L539.95,368.7z"/>
		<path class="st0" d="M546.59,377.63c-1.7,0-3.09-0.52-4.16-1.57c-1.07-1.05-1.61-2.44-1.61-4.18v-0.3c0-1.17,0.23-2.21,0.68-3.13
			c0.45-0.92,1.09-1.63,1.92-2.13c0.83-0.5,1.77-0.75,2.83-0.75c1.59,0,2.84,0.5,3.75,1.5s1.37,2.42,1.37,4.26v1.27h-7.4
			c0.1,0.76,0.4,1.37,0.91,1.83s1.14,0.69,1.92,0.69c1.2,0,2.13-0.43,2.8-1.3l1.53,1.71c-0.46,0.66-1.1,1.17-1.89,1.54
			C548.43,377.44,547.55,377.63,546.59,377.63z M546.23,368.08c-0.62,0-1.12,0.21-1.5,0.63c-0.38,0.42-0.63,1.01-0.74,1.79h4.32
			v-0.25c-0.02-0.69-0.2-1.22-0.56-1.6C547.4,368.27,546.89,368.08,546.23,368.08z"/>
		<path class="st0" d="M556.4,377.41h-3.12v-16.5h3.12V377.41z"/>
		<path class="st0" d="M565.7,377.41c-0.14-0.28-0.25-0.63-0.31-1.04c-0.75,0.84-1.73,1.26-2.93,1.26c-1.14,0-2.08-0.33-2.83-0.99
			c-0.75-0.66-1.12-1.49-1.12-2.49c0-1.23,0.46-2.18,1.37-2.84s2.23-0.99,3.96-1h1.43v-0.67c0-0.54-0.14-0.97-0.41-1.29
			c-0.28-0.32-0.71-0.48-1.31-0.48c-0.52,0-0.93,0.13-1.23,0.38c-0.3,0.25-0.45,0.59-0.45,1.03h-3.1c0-0.67,0.21-1.3,0.62-1.87
			c0.41-0.57,1-1.02,1.76-1.35c0.76-0.33,1.61-0.49,2.56-0.49c1.43,0,2.57,0.36,3.41,1.08c0.84,0.72,1.26,1.73,1.26,3.03v5.04
			c0.01,1.1,0.16,1.94,0.46,2.5v0.18H565.7z M563.13,375.25c0.46,0,0.88-0.1,1.27-0.31c0.39-0.21,0.67-0.48,0.86-0.82v-2h-1.16
			c-1.55,0-2.38,0.54-2.48,1.61l-0.01,0.18c0,0.39,0.14,0.71,0.41,0.96C562.28,375.13,562.66,375.25,563.13,375.25z"/>
		<path class="st0" d="M574.47,362.93v2.86h1.99v2.28h-1.99v5.8c0,0.43,0.08,0.74,0.25,0.92c0.16,0.19,0.48,0.28,0.95,0.28
			c0.34,0,0.65-0.03,0.91-0.08v2.35c-0.61,0.19-1.23,0.28-1.88,0.28c-2.18,0-3.29-1.1-3.33-3.3v-6.26h-1.7v-2.28h1.7v-2.86H574.47z"
			/>
		<path class="st0" d="M578.17,362.78c0-0.47,0.16-0.85,0.47-1.15s0.74-0.45,1.27-0.45c0.53,0,0.95,0.15,1.27,0.45
			c0.32,0.3,0.47,0.68,0.47,1.15c0,0.47-0.16,0.86-0.48,1.16c-0.32,0.3-0.74,0.45-1.26,0.45c-0.52,0-0.94-0.15-1.26-0.45
			S578.17,363.26,578.17,362.78z M581.47,377.41h-3.12v-11.62h3.12V377.41z"/>
		<path class="st0" d="M583.54,371.49c0-1.15,0.22-2.18,0.67-3.08c0.44-0.9,1.08-1.6,1.92-2.09s1.8-0.74,2.91-0.74
			c1.57,0,2.85,0.48,3.84,1.44s1.54,2.26,1.66,3.91l0.02,0.79c0,1.78-0.5,3.21-1.49,4.29c-1,1.08-2.33,1.62-4.01,1.62
			s-3.01-0.54-4.01-1.61s-1.5-2.54-1.5-4.38V371.49z M586.64,371.72c0,1.1,0.21,1.95,0.62,2.53c0.41,0.58,1.01,0.88,1.78,0.88
			c0.75,0,1.34-0.29,1.76-0.87c0.42-0.58,0.63-1.5,0.63-2.77c0-1.08-0.21-1.92-0.63-2.52c-0.42-0.59-1.02-0.89-1.78-0.89
			c-0.76,0-1.35,0.3-1.76,0.89C586.85,369.56,586.64,370.47,586.64,371.72z"/>
		<path class="st0" d="M599.32,365.79l0.1,1.34c0.83-1.04,1.95-1.56,3.34-1.56c1.23,0,2.15,0.36,2.75,1.08s0.91,1.8,0.92,3.24v7.51
			h-3.11v-7.43c0-0.66-0.14-1.14-0.43-1.43c-0.29-0.3-0.76-0.45-1.43-0.45c-0.88,0-1.53,0.37-1.97,1.12v8.2h-3.1v-11.62H599.32z"/>
		<path class="st0" d="M624.37,373.19l1.53-7.4h3l-2.96,11.62h-2.6l-2.2-7.32l-2.2,7.32h-2.59l-2.96-11.62h3l1.52,7.39l2.13-7.39
			h2.24L624.37,373.19z"/>
		<path class="st0" d="M630.41,362.78c0-0.47,0.16-0.85,0.47-1.15s0.74-0.45,1.27-0.45c0.53,0,0.95,0.15,1.27,0.45
			c0.31,0.3,0.47,0.68,0.47,1.15c0,0.47-0.16,0.86-0.48,1.16s-0.74,0.45-1.26,0.45c-0.52,0-0.94-0.15-1.26-0.45
			C630.57,363.64,630.41,363.26,630.41,362.78z M633.71,377.41h-3.12v-11.62h3.12V377.41z"/>
		<path class="st0" d="M639.98,362.93v2.86h1.99v2.28h-1.99v5.8c0,0.43,0.08,0.74,0.25,0.92c0.16,0.19,0.48,0.28,0.95,0.28
			c0.34,0,0.65-0.03,0.91-0.08v2.35c-0.61,0.19-1.23,0.28-1.88,0.28c-2.18,0-3.29-1.1-3.33-3.3v-6.26h-1.7v-2.28h1.7v-2.86H639.98z"
			/>
		<path class="st0" d="M646.72,367.06c0.82-0.99,1.86-1.48,3.11-1.48c2.52,0,3.8,1.46,3.83,4.39v7.44h-3.1v-7.36
			c0-0.67-0.14-1.16-0.43-1.48c-0.29-0.32-0.76-0.48-1.43-0.48c-0.91,0-1.57,0.35-1.98,1.05v8.26h-3.1v-16.5h3.1V367.06z"/>
		<path class="st0" d="M655.98,362.78c0-0.47,0.16-0.85,0.47-1.15s0.74-0.45,1.27-0.45c0.53,0,0.95,0.15,1.27,0.45
			c0.32,0.3,0.47,0.68,0.47,1.15c0,0.47-0.16,0.86-0.48,1.16c-0.32,0.3-0.74,0.45-1.26,0.45c-0.52,0-0.94-0.15-1.26-0.45
			S655.98,363.26,655.98,362.78z M659.28,377.41h-3.12v-11.62h3.12V377.41z"/>
		<path class="st0" d="M664.7,365.79l0.1,1.34c0.83-1.04,1.95-1.56,3.34-1.56c1.23,0,2.15,0.36,2.75,1.08s0.91,1.8,0.92,3.24v7.51
			h-3.11v-7.43c0-0.66-0.14-1.14-0.43-1.43c-0.29-0.3-0.76-0.45-1.43-0.45c-0.88,0-1.53,0.37-1.97,1.12v8.2h-3.1v-11.62H664.7z"/>
		<path class="st0" d="M465.37,389.33v2.86h1.99v2.28h-1.99v5.8c0,0.43,0.08,0.74,0.25,0.92c0.16,0.19,0.48,0.28,0.95,0.28
			c0.34,0,0.65-0.03,0.91-0.08v2.35c-0.61,0.19-1.24,0.28-1.88,0.28c-2.18,0-3.29-1.1-3.33-3.3v-6.26h-1.7v-2.28h1.7v-2.86H465.37z"
			/>
		<path class="st0" d="M472.12,393.46c0.82-0.99,1.86-1.48,3.1-1.48c2.52,0,3.8,1.46,3.83,4.39v7.44h-3.1v-7.36
			c0-0.67-0.14-1.16-0.43-1.48c-0.29-0.32-0.76-0.48-1.43-0.48c-0.91,0-1.57,0.35-1.98,1.05v8.26h-3.1v-16.5h3.1V393.46z"/>
		<path class="st0" d="M486.75,404.03c-1.7,0-3.09-0.52-4.16-1.57c-1.07-1.05-1.61-2.44-1.61-4.18v-0.3c0-1.17,0.23-2.21,0.68-3.13
			c0.45-0.92,1.09-1.63,1.92-2.13c0.83-0.5,1.77-0.75,2.83-0.75c1.59,0,2.84,0.5,3.75,1.5s1.37,2.42,1.37,4.26v1.27h-7.4
			c0.1,0.76,0.4,1.37,0.91,1.83s1.14,0.69,1.92,0.69c1.2,0,2.13-0.43,2.8-1.3l1.53,1.71c-0.47,0.66-1.1,1.17-1.89,1.54
			C488.59,403.84,487.71,404.03,486.75,404.03z M486.39,394.48c-0.62,0-1.12,0.21-1.5,0.63c-0.38,0.42-0.63,1.01-0.74,1.79h4.32
			v-0.25c-0.01-0.69-0.2-1.22-0.56-1.6C487.56,394.67,487.05,394.48,486.39,394.48z"/>
		<path class="st0" d="M505.06,400.6c0-0.38-0.19-0.68-0.56-0.9c-0.38-0.22-0.98-0.41-1.81-0.58c-2.76-0.58-4.15-1.75-4.15-3.52
			c0-1.03,0.43-1.89,1.28-2.58c0.86-0.69,1.97-1.04,3.36-1.04c1.48,0,2.65,0.35,3.54,1.04c0.88,0.69,1.33,1.6,1.33,2.71h-3.1
			c0-0.44-0.14-0.81-0.43-1.1c-0.29-0.29-0.73-0.44-1.34-0.44c-0.52,0-0.93,0.12-1.21,0.35c-0.29,0.24-0.43,0.54-0.43,0.9
			c0,0.34,0.16,0.62,0.49,0.83c0.33,0.21,0.88,0.39,1.65,0.55c0.77,0.15,1.42,0.33,1.96,0.52c1.64,0.6,2.46,1.64,2.46,3.13
			c0,1.06-0.46,1.92-1.36,2.57c-0.91,0.65-2.08,0.98-3.52,0.98c-0.97,0-1.84-0.17-2.59-0.52c-0.76-0.35-1.35-0.82-1.78-1.43
			c-0.43-0.61-0.64-1.26-0.64-1.96h2.94c0.03,0.55,0.23,0.97,0.61,1.27c0.38,0.29,0.89,0.44,1.53,0.44c0.59,0,1.04-0.11,1.35-0.34
			C504.91,401.26,505.06,400.97,505.06,400.6z"/>
		<path class="st0" d="M515.43,404.03c-1.7,0-3.09-0.52-4.16-1.57c-1.07-1.05-1.61-2.44-1.61-4.18v-0.3c0-1.17,0.23-2.21,0.68-3.13
			c0.45-0.92,1.09-1.63,1.92-2.13c0.83-0.5,1.77-0.75,2.83-0.75c1.59,0,2.84,0.5,3.75,1.5s1.37,2.42,1.37,4.26v1.27h-7.4
			c0.1,0.76,0.4,1.37,0.91,1.83s1.14,0.69,1.92,0.69c1.2,0,2.13-0.43,2.8-1.3l1.53,1.71c-0.47,0.66-1.1,1.17-1.89,1.54
			C517.28,403.84,516.4,404.03,515.43,404.03z M515.07,394.48c-0.62,0-1.12,0.21-1.5,0.63c-0.38,0.42-0.63,1.01-0.74,1.79h4.32
			v-0.25c-0.01-0.69-0.2-1.22-0.56-1.6C516.24,394.67,515.73,394.48,515.07,394.48z"/>
		<path class="st0" d="M525.69,389.33v2.86h1.99v2.28h-1.99v5.8c0,0.43,0.08,0.74,0.25,0.92c0.16,0.19,0.48,0.28,0.95,0.28
			c0.34,0,0.65-0.03,0.91-0.08v2.35c-0.61,0.19-1.24,0.28-1.88,0.28c-2.18,0-3.29-1.1-3.33-3.3v-6.26h-1.7v-2.28h1.7v-2.86H525.69z"
			/>
		<path class="st0" d="M534.4,397.89c0-1.15,0.22-2.18,0.67-3.08c0.44-0.9,1.08-1.6,1.92-2.09c0.83-0.49,1.8-0.74,2.91-0.74
			c1.57,0,2.85,0.48,3.84,1.44c0.99,0.96,1.54,2.26,1.66,3.91l0.02,0.79c0,1.78-0.5,3.21-1.49,4.29c-1,1.08-2.33,1.62-4.01,1.62
			s-3.01-0.54-4.01-1.61s-1.5-2.54-1.5-4.38V397.89z M537.5,398.12c0,1.1,0.21,1.95,0.62,2.53c0.42,0.58,1.01,0.88,1.78,0.88
			c0.75,0,1.34-0.29,1.76-0.87c0.42-0.58,0.63-1.5,0.63-2.77c0-1.08-0.21-1.92-0.63-2.52c-0.42-0.59-1.02-0.89-1.78-0.89
			c-0.76,0-1.35,0.3-1.76,0.89C537.71,395.96,537.5,396.87,537.5,398.12z"/>
		<path class="st0" d="M548.17,403.81v-9.35h-1.73v-2.28h1.73v-0.99c0-1.3,0.37-2.31,1.12-3.04c0.75-0.72,1.8-1.08,3.14-1.08
			c0.43,0,0.96,0.07,1.58,0.21l-0.03,2.41c-0.26-0.06-0.57-0.1-0.95-0.1c-1.17,0-1.75,0.55-1.75,1.64v0.93h2.31v2.28h-2.31v9.35
			H548.17z"/>
		<path class="st0" d="M565.1,388.17l4.02,11.34l4-11.34h4.23v15.64h-3.23v-4.28l0.32-7.38l-4.22,11.66H568l-4.21-11.64l0.32,7.37
			v4.28h-3.22v-15.64H565.1z"/>
		<path class="st0" d="M593.01,396.35c0,1.54-0.27,2.89-0.82,4.05s-1.32,2.06-2.34,2.69s-2.17,0.95-3.49,0.95
			c-1.3,0-2.45-0.31-3.47-0.93c-1.02-0.62-1.8-1.51-2.36-2.67c-0.56-1.16-0.84-2.49-0.85-3.99v-0.77c0-1.54,0.28-2.9,0.83-4.07
			c0.55-1.17,1.34-2.07,2.35-2.7c1.01-0.63,2.17-0.94,3.48-0.94s2.46,0.31,3.48,0.94c1.01,0.63,1.8,1.53,2.35,2.7
			c0.55,1.17,0.83,2.52,0.83,4.05V396.35z M589.74,395.64c0-1.64-0.29-2.89-0.88-3.74s-1.42-1.28-2.51-1.28
			c-1.08,0-1.92,0.42-2.5,1.26c-0.59,0.84-0.88,2.08-0.89,3.7v0.76c0,1.6,0.29,2.84,0.88,3.72s1.43,1.32,2.54,1.32
			c1.08,0,1.91-0.42,2.49-1.27c0.58-0.85,0.87-2.08,0.88-3.71V395.64z"/>
		<path class="st0" d="M600.89,399.94l3.54-11.76h3.59l-5.45,15.64h-3.36l-5.42-15.64h3.58L600.89,399.94z"/>
		<path class="st0" d="M618.91,397.04h-6.19v4.19h7.26v2.59H609.5v-15.64h10.46v2.61h-7.24v3.73h6.19V397.04z"/>
		<path class="st0" d="M629.98,399.71c0-0.61-0.21-1.08-0.64-1.4c-0.43-0.33-1.2-0.67-2.32-1.03c-1.12-0.36-2-0.72-2.65-1.07
			c-1.78-0.96-2.66-2.25-2.66-3.88c0-0.84,0.24-1.6,0.71-2.26c0.48-0.66,1.16-1.18,2.05-1.55c0.89-0.37,1.89-0.56,3-0.56
			c1.12,0,2.11,0.2,2.99,0.61c0.87,0.4,1.55,0.98,2.04,1.71c0.48,0.74,0.72,1.58,0.72,2.51h-3.22c0-0.72-0.23-1.27-0.68-1.67
			c-0.45-0.4-1.08-0.6-1.9-0.6c-0.79,0-1.4,0.17-1.84,0.5c-0.44,0.33-0.66,0.77-0.66,1.32c0,0.51,0.26,0.93,0.77,1.28
			s1.27,0.67,2.26,0.97c1.83,0.55,3.17,1.24,4.01,2.05s1.26,1.83,1.26,3.05c0,1.35-0.51,2.42-1.54,3.19
			c-1.02,0.77-2.4,1.15-4.14,1.15c-1.2,0-2.3-0.22-3.29-0.66c-0.99-0.44-1.74-1.04-2.26-1.81s-0.78-1.65-0.78-2.66h3.23
			c0,1.73,1.03,2.59,3.09,2.59c0.77,0,1.36-0.16,1.79-0.47C629.77,400.7,629.98,400.27,629.98,399.71z"/>
	</g>
	<g>
		<path class="st0" d="M809.49,364.38h-4.79v13.03h-3.22v-13.03h-4.73v-2.61h12.74V364.38z"/>
		<path class="st0" d="M814.15,367.06c0.82-0.99,1.86-1.48,3.11-1.48c2.52,0,3.8,1.46,3.83,4.39v7.44h-3.1v-7.36
			c0-0.67-0.14-1.16-0.43-1.48c-0.29-0.32-0.76-0.48-1.43-0.48c-0.91,0-1.57,0.35-1.98,1.05v8.26h-3.1v-16.5h3.1V367.06z"/>
		<path class="st0" d="M828.78,377.63c-1.7,0-3.09-0.52-4.16-1.57s-1.61-2.44-1.61-4.18v-0.3c0-1.17,0.22-2.21,0.68-3.13
			c0.45-0.92,1.09-1.63,1.92-2.13c0.83-0.5,1.77-0.75,2.83-0.75c1.59,0,2.84,0.5,3.75,1.5s1.37,2.42,1.37,4.26v1.27h-7.4
			c0.1,0.76,0.4,1.37,0.91,1.83s1.14,0.69,1.92,0.69c1.2,0,2.13-0.43,2.8-1.3l1.53,1.71c-0.46,0.66-1.1,1.17-1.89,1.54
			C830.63,377.44,829.75,377.63,828.78,377.63z M828.43,368.08c-0.62,0-1.12,0.21-1.5,0.63c-0.38,0.42-0.63,1.01-0.74,1.79h4.32
			v-0.25c-0.02-0.69-0.2-1.22-0.56-1.6C829.59,368.27,829.08,368.08,828.43,368.08z"/>
		<path class="st0" d="M844.23,374.82h6.84v2.59H841v-15.64h3.22V374.82z"/>
		<path class="st0" d="M865.08,369.95c0,1.54-0.27,2.89-0.82,4.05c-0.54,1.16-1.32,2.06-2.34,2.69c-1.01,0.63-2.17,0.95-3.49,0.95
			c-1.3,0-2.45-0.31-3.47-0.93c-1.02-0.62-1.8-1.51-2.36-2.67c-0.56-1.16-0.84-2.49-0.85-3.99v-0.77c0-1.54,0.28-2.9,0.83-4.07
			c0.55-1.17,1.34-2.07,2.35-2.7c1.01-0.63,2.17-0.94,3.48-0.94c1.3,0,2.46,0.31,3.47,0.94c1.01,0.63,1.8,1.53,2.35,2.7
			c0.55,1.17,0.83,2.52,0.83,4.05V369.95z M861.81,369.24c0-1.64-0.29-2.89-0.88-3.74c-0.59-0.85-1.43-1.28-2.51-1.28
			c-1.08,0-1.92,0.42-2.5,1.26c-0.59,0.84-0.88,2.08-0.89,3.7v0.76c0,1.6,0.29,2.84,0.88,3.72c0.59,0.88,1.43,1.32,2.54,1.32
			c1.08,0,1.91-0.42,2.49-1.27c0.58-0.85,0.87-2.08,0.88-3.71V369.24z"/>
		<path class="st0" d="M875.53,373.31c0-0.61-0.21-1.08-0.64-1.4c-0.43-0.33-1.2-0.67-2.32-1.03c-1.12-0.36-2-0.72-2.65-1.07
			c-1.78-0.96-2.66-2.25-2.66-3.88c0-0.84,0.24-1.6,0.71-2.26c0.48-0.66,1.16-1.18,2.05-1.55s1.89-0.56,3-0.56
			c1.12,0,2.11,0.2,2.99,0.61c0.87,0.4,1.55,0.98,2.04,1.71s0.73,1.58,0.73,2.51h-3.22c0-0.72-0.23-1.27-0.68-1.67
			c-0.45-0.4-1.08-0.6-1.9-0.6c-0.79,0-1.4,0.17-1.84,0.5c-0.44,0.33-0.65,0.77-0.65,1.32c0,0.51,0.26,0.93,0.77,1.28
			s1.27,0.67,2.26,0.97c1.83,0.55,3.17,1.24,4.01,2.05s1.26,1.83,1.26,3.05c0,1.35-0.51,2.42-1.54,3.19
			c-1.02,0.77-2.4,1.15-4.13,1.15c-1.2,0-2.3-0.22-3.29-0.66c-0.99-0.44-1.74-1.04-2.26-1.81s-0.78-1.65-0.78-2.66H870
			c0,1.73,1.03,2.59,3.09,2.59c0.77,0,1.36-0.16,1.79-0.47C875.31,374.3,875.53,373.87,875.53,373.31z"/>
		<path class="st0" d="M890.35,370.64h-6.19v4.19h7.26v2.59h-10.48v-15.64h10.46v2.61h-7.24v3.73h6.19V370.64z"/>
		<path class="st0" d="M905.13,368.7c-0.42-0.06-0.79-0.09-1.12-0.09c-1.18,0-1.95,0.4-2.31,1.19v7.61h-3.1v-11.62h2.93l0.09,1.39
			c0.62-1.07,1.49-1.6,2.59-1.6c0.34,0,0.67,0.05,0.97,0.14L905.13,368.7z"/>
		<path class="st0" d="M911.76,377.63c-1.71,0-3.09-0.52-4.16-1.57c-1.07-1.05-1.61-2.44-1.61-4.18v-0.3c0-1.17,0.23-2.21,0.68-3.13
			c0.45-0.92,1.09-1.63,1.92-2.13c0.83-0.5,1.77-0.75,2.83-0.75c1.59,0,2.84,0.5,3.75,1.5s1.37,2.42,1.37,4.26v1.27h-7.4
			c0.1,0.76,0.4,1.37,0.91,1.83s1.14,0.69,1.92,0.69c1.2,0,2.13-0.43,2.8-1.3l1.53,1.71c-0.47,0.66-1.1,1.17-1.89,1.54
			C913.61,377.44,912.73,377.63,911.76,377.63z M911.41,368.08c-0.62,0-1.12,0.21-1.5,0.63s-0.63,1.01-0.74,1.79h4.32v-0.25
			c-0.01-0.69-0.2-1.22-0.56-1.6C912.58,368.27,912.07,368.08,911.41,368.08z"/>
		<path class="st0" d="M921.58,377.41h-3.12v-16.5h3.12V377.41z"/>
		<path class="st0" d="M930.87,377.41c-0.14-0.28-0.25-0.63-0.31-1.04c-0.75,0.84-1.73,1.26-2.93,1.26c-1.14,0-2.08-0.33-2.83-0.99
			s-1.12-1.49-1.12-2.49c0-1.23,0.46-2.18,1.37-2.84s2.23-0.99,3.96-1h1.43v-0.67c0-0.54-0.14-0.97-0.41-1.29s-0.71-0.48-1.3-0.48
			c-0.52,0-0.93,0.13-1.23,0.38s-0.45,0.59-0.45,1.03h-3.11c0-0.67,0.21-1.3,0.62-1.87c0.42-0.57,1-1.02,1.76-1.35
			c0.76-0.33,1.61-0.49,2.56-0.49c1.43,0,2.57,0.36,3.41,1.08c0.84,0.72,1.26,1.73,1.26,3.03v5.04c0.01,1.1,0.16,1.94,0.46,2.5v0.18
			H930.87z M928.31,375.25c0.46,0,0.88-0.1,1.27-0.31c0.39-0.21,0.67-0.48,0.86-0.82v-2h-1.16c-1.55,0-2.38,0.54-2.48,1.61
			l-0.01,0.18c0,0.39,0.13,0.71,0.41,0.96C927.46,375.13,927.83,375.25,928.31,375.25z"/>
		<path class="st0" d="M939.65,362.93v2.86h1.99v2.28h-1.99v5.8c0,0.43,0.08,0.74,0.25,0.92c0.17,0.19,0.48,0.28,0.95,0.28
			c0.34,0,0.65-0.03,0.91-0.08v2.35c-0.61,0.19-1.24,0.28-1.88,0.28c-2.18,0-3.29-1.1-3.33-3.3v-6.26h-1.7v-2.28h1.7v-2.86H939.65z"
			/>
		<path class="st0" d="M943.35,362.78c0-0.47,0.16-0.85,0.47-1.15s0.74-0.45,1.27-0.45c0.53,0,0.95,0.15,1.27,0.45
			c0.31,0.3,0.47,0.68,0.47,1.15c0,0.47-0.16,0.86-0.48,1.16s-0.74,0.45-1.26,0.45c-0.52,0-0.94-0.15-1.26-0.45
			C943.5,363.64,943.35,363.26,943.35,362.78z M946.64,377.41h-3.12v-11.62h3.12V377.41z"/>
		<path class="st0" d="M948.72,371.49c0-1.15,0.22-2.18,0.67-3.08c0.44-0.9,1.08-1.6,1.92-2.09c0.83-0.49,1.8-0.74,2.91-0.74
			c1.57,0,2.85,0.48,3.84,1.44c0.99,0.96,1.54,2.26,1.66,3.91l0.02,0.79c0,1.78-0.5,3.21-1.49,4.29c-1,1.08-2.33,1.62-4.01,1.62
			s-3.01-0.54-4.01-1.61s-1.5-2.54-1.5-4.38V371.49z M951.82,371.72c0,1.1,0.21,1.95,0.62,2.53c0.42,0.58,1.01,0.88,1.78,0.88
			c0.75,0,1.34-0.29,1.76-0.87c0.42-0.58,0.63-1.5,0.63-2.77c0-1.08-0.21-1.92-0.63-2.52c-0.42-0.59-1.02-0.89-1.78-0.89
			c-0.76,0-1.35,0.3-1.76,0.89C952.03,369.56,951.82,370.47,951.82,371.72z"/>
		<path class="st0" d="M964.5,365.79l0.1,1.34c0.83-1.04,1.94-1.56,3.34-1.56c1.23,0,2.15,0.36,2.75,1.08s0.91,1.8,0.92,3.24v7.51
			h-3.1v-7.43c0-0.66-0.14-1.14-0.43-1.43c-0.29-0.3-0.76-0.45-1.43-0.45c-0.87,0-1.53,0.37-1.96,1.12v8.2h-3.11v-11.62H964.5z"/>
		<path class="st0" d="M989.55,373.19l1.53-7.4h3l-2.96,11.62h-2.6l-2.2-7.32l-2.2,7.32h-2.59l-2.96-11.62h3l1.51,7.39l2.13-7.39
			h2.25L989.55,373.19z"/>
		<path class="st0" d="M995.58,362.78c0-0.47,0.16-0.85,0.47-1.15s0.74-0.45,1.27-0.45c0.53,0,0.95,0.15,1.27,0.45
			c0.32,0.3,0.47,0.68,0.47,1.15c0,0.47-0.16,0.86-0.48,1.16c-0.32,0.3-0.74,0.45-1.26,0.45c-0.52,0-0.94-0.15-1.26-0.45
			S995.58,363.26,995.58,362.78z M998.88,377.41h-3.12v-11.62h3.12V377.41z"/>
		<path class="st0" d="M1005.16,362.93v2.86h1.99v2.28h-1.99v5.8c0,0.43,0.08,0.74,0.25,0.92c0.17,0.19,0.48,0.28,0.95,0.28
			c0.34,0,0.65-0.03,0.91-0.08v2.35c-0.61,0.19-1.24,0.28-1.88,0.28c-2.18,0-3.29-1.1-3.33-3.3v-6.26h-1.7v-2.28h1.7v-2.86H1005.16z
			"/>
		<path class="st0" d="M1011.9,367.06c0.82-0.99,1.86-1.48,3.1-1.48c2.52,0,3.8,1.46,3.84,4.39v7.44h-3.11v-7.36
			c0-0.67-0.14-1.16-0.43-1.48c-0.29-0.32-0.76-0.48-1.43-0.48c-0.91,0-1.57,0.35-1.98,1.05v8.26h-3.11v-16.5h3.11V367.06z"/>
		<path class="st0" d="M1021.16,362.78c0-0.47,0.16-0.85,0.47-1.15s0.74-0.45,1.27-0.45c0.53,0,0.95,0.15,1.27,0.45
			c0.31,0.3,0.47,0.68,0.47,1.15c0,0.47-0.16,0.86-0.48,1.16c-0.32,0.3-0.74,0.45-1.26,0.45c-0.52,0-0.94-0.15-1.26-0.45
			C1021.32,363.64,1021.16,363.26,1021.16,362.78z M1024.46,377.41h-3.12v-11.62h3.12V377.41z"/>
		<path class="st0" d="M1029.87,365.79l0.1,1.34c0.83-1.04,1.94-1.56,3.34-1.56c1.23,0,2.15,0.36,2.75,1.08s0.91,1.8,0.92,3.24v7.51
			h-3.1v-7.43c0-0.66-0.14-1.14-0.43-1.43c-0.29-0.3-0.76-0.45-1.43-0.45c-0.87,0-1.53,0.37-1.96,1.12v8.2h-3.11v-11.62H1029.87z"/>
		<path class="st0" d="M835.37,389.33v2.86h1.99v2.28h-1.99v5.8c0,0.43,0.08,0.74,0.25,0.92c0.16,0.19,0.48,0.28,0.95,0.28
			c0.34,0,0.65-0.03,0.91-0.08v2.35c-0.61,0.19-1.24,0.28-1.88,0.28c-2.18,0-3.29-1.1-3.33-3.3v-6.26h-1.7v-2.28h1.7v-2.86H835.37z"
			/>
		<path class="st0" d="M842.12,393.46c0.82-0.99,1.86-1.48,3.1-1.48c2.52,0,3.8,1.46,3.83,4.39v7.44h-3.1v-7.36
			c0-0.67-0.14-1.16-0.43-1.48c-0.29-0.32-0.76-0.48-1.43-0.48c-0.91,0-1.57,0.35-1.98,1.05v8.26h-3.1v-16.5h3.1V393.46z"/>
		<path class="st0" d="M856.75,404.03c-1.7,0-3.09-0.52-4.16-1.57s-1.61-2.44-1.61-4.18v-0.3c0-1.17,0.23-2.21,0.68-3.13
			c0.45-0.92,1.09-1.63,1.92-2.13c0.83-0.5,1.77-0.75,2.83-0.75c1.59,0,2.84,0.5,3.75,1.5c0.91,1,1.37,2.42,1.37,4.26v1.27h-7.4
			c0.1,0.76,0.4,1.37,0.91,1.83c0.51,0.46,1.14,0.69,1.92,0.69c1.2,0,2.13-0.43,2.8-1.3l1.53,1.71c-0.47,0.66-1.1,1.17-1.89,1.54
			C858.59,403.84,857.71,404.03,856.75,404.03z M856.39,394.48c-0.62,0-1.12,0.21-1.5,0.63c-0.38,0.42-0.63,1.01-0.74,1.79h4.32
			v-0.25c-0.01-0.69-0.2-1.22-0.56-1.6C857.56,394.67,857.05,394.48,856.39,394.48z"/>
		<path class="st0" d="M875.06,400.6c0-0.38-0.19-0.68-0.56-0.9c-0.38-0.22-0.98-0.41-1.81-0.58c-2.76-0.58-4.15-1.75-4.15-3.52
			c0-1.03,0.43-1.89,1.28-2.58c0.86-0.69,1.97-1.04,3.36-1.04c1.48,0,2.66,0.35,3.54,1.04c0.88,0.69,1.33,1.6,1.33,2.71h-3.1
			c0-0.44-0.14-0.81-0.43-1.1c-0.29-0.29-0.73-0.44-1.34-0.44c-0.52,0-0.93,0.12-1.21,0.35s-0.43,0.54-0.43,0.9
			c0,0.34,0.16,0.62,0.49,0.83c0.33,0.21,0.88,0.39,1.65,0.55c0.77,0.15,1.42,0.33,1.96,0.52c1.64,0.6,2.46,1.64,2.46,3.13
			c0,1.06-0.46,1.92-1.36,2.57c-0.91,0.65-2.08,0.98-3.52,0.98c-0.97,0-1.84-0.17-2.59-0.52c-0.76-0.35-1.35-0.82-1.78-1.43
			c-0.43-0.61-0.64-1.26-0.64-1.96h2.94c0.03,0.55,0.23,0.97,0.61,1.27c0.38,0.29,0.89,0.44,1.53,0.44c0.59,0,1.04-0.11,1.35-0.34
			C874.91,401.26,875.06,400.97,875.06,400.6z"/>
		<path class="st0" d="M885.43,404.03c-1.7,0-3.09-0.52-4.16-1.57s-1.61-2.44-1.61-4.18v-0.3c0-1.17,0.23-2.21,0.68-3.13
			c0.45-0.92,1.09-1.63,1.92-2.13c0.83-0.5,1.77-0.75,2.83-0.75c1.59,0,2.84,0.5,3.75,1.5c0.91,1,1.37,2.42,1.37,4.26v1.27h-7.4
			c0.1,0.76,0.4,1.37,0.91,1.83c0.51,0.46,1.14,0.69,1.92,0.69c1.2,0,2.13-0.43,2.8-1.3l1.53,1.71c-0.47,0.66-1.1,1.17-1.89,1.54
			C887.28,403.84,886.4,404.03,885.43,404.03z M885.07,394.48c-0.62,0-1.12,0.21-1.5,0.63c-0.38,0.42-0.63,1.01-0.74,1.79h4.32
			v-0.25c-0.01-0.69-0.2-1.22-0.56-1.6C886.24,394.67,885.73,394.48,885.07,394.48z"/>
		<path class="st0" d="M895.69,389.33v2.86h1.99v2.28h-1.99v5.8c0,0.43,0.08,0.74,0.25,0.92s0.48,0.28,0.95,0.28
			c0.34,0,0.65-0.03,0.91-0.08v2.35c-0.61,0.19-1.24,0.28-1.88,0.28c-2.18,0-3.29-1.1-3.33-3.3v-6.26h-1.7v-2.28h1.7v-2.86H895.69z"
			/>
		<path class="st0" d="M904.4,397.89c0-1.15,0.22-2.18,0.67-3.08s1.08-1.6,1.92-2.09s1.8-0.74,2.91-0.74c1.57,0,2.85,0.48,3.84,1.44
			s1.54,2.26,1.66,3.91l0.02,0.79c0,1.78-0.5,3.21-1.49,4.29c-1,1.08-2.33,1.62-4.01,1.62s-3.01-0.54-4.01-1.61
			c-1-1.07-1.5-2.54-1.5-4.38V397.89z M907.5,398.12c0,1.1,0.21,1.95,0.62,2.53c0.42,0.58,1.01,0.88,1.78,0.88
			c0.75,0,1.34-0.29,1.76-0.87c0.42-0.58,0.63-1.5,0.63-2.77c0-1.08-0.21-1.92-0.63-2.52c-0.42-0.59-1.02-0.89-1.78-0.89
			c-0.76,0-1.35,0.3-1.76,0.89C907.71,395.96,907.5,396.87,907.5,398.12z"/>
		<path class="st0" d="M918.17,403.81v-9.35h-1.73v-2.28h1.73v-0.99c0-1.3,0.37-2.31,1.12-3.04c0.75-0.72,1.8-1.08,3.14-1.08
			c0.43,0,0.96,0.07,1.58,0.21l-0.03,2.41c-0.26-0.06-0.57-0.1-0.95-0.1c-1.17,0-1.75,0.55-1.75,1.64v0.93h2.31v2.28h-2.31v9.35
			H918.17z"/>
		<path class="st0" d="M935.1,388.17l4.02,11.34l4-11.34h4.23v15.64h-3.23v-4.28l0.32-7.38l-4.22,11.66H938l-4.21-11.64l0.32,7.37
			v4.28h-3.22v-15.64H935.1z"/>
		<path class="st0" d="M963.01,396.35c0,1.54-0.27,2.89-0.82,4.05s-1.32,2.06-2.34,2.69s-2.17,0.95-3.49,0.95
			c-1.3,0-2.45-0.31-3.47-0.93c-1.02-0.62-1.8-1.51-2.36-2.67c-0.56-1.16-0.84-2.49-0.85-3.99v-0.77c0-1.54,0.28-2.9,0.83-4.07
			c0.55-1.17,1.34-2.07,2.35-2.7c1.01-0.63,2.17-0.94,3.48-0.94s2.46,0.31,3.48,0.94c1.01,0.63,1.8,1.53,2.35,2.7
			c0.55,1.17,0.83,2.52,0.83,4.05V396.35z M959.74,395.64c0-1.64-0.29-2.89-0.88-3.74s-1.42-1.28-2.51-1.28
			c-1.08,0-1.92,0.42-2.5,1.26c-0.59,0.84-0.88,2.08-0.89,3.7v0.76c0,1.6,0.29,2.84,0.88,3.72s1.43,1.32,2.54,1.32
			c1.08,0,1.91-0.42,2.49-1.27c0.58-0.85,0.87-2.08,0.88-3.71V395.64z"/>
		<path class="st0" d="M970.89,399.94l3.54-11.76h3.59l-5.45,15.64h-3.36l-5.42-15.64h3.58L970.89,399.94z"/>
		<path class="st0" d="M988.91,397.04h-6.19v4.19h7.26v2.59H979.5v-15.64h10.46v2.61h-7.24v3.73h6.19V397.04z"/>
		<path class="st0" d="M999.98,399.71c0-0.61-0.21-1.08-0.64-1.4c-0.43-0.33-1.2-0.67-2.32-1.03c-1.12-0.36-2-0.72-2.65-1.07
			c-1.78-0.96-2.66-2.25-2.66-3.88c0-0.84,0.24-1.6,0.71-2.26c0.48-0.66,1.16-1.18,2.05-1.55c0.89-0.37,1.89-0.56,3-0.56
			c1.12,0,2.11,0.2,2.99,0.61c0.87,0.4,1.55,0.98,2.04,1.71c0.48,0.74,0.72,1.58,0.72,2.51h-3.22c0-0.72-0.23-1.27-0.68-1.67
			c-0.45-0.4-1.08-0.6-1.9-0.6c-0.79,0-1.4,0.17-1.84,0.5c-0.44,0.33-0.66,0.77-0.66,1.32c0,0.51,0.26,0.93,0.77,1.28
			s1.27,0.67,2.26,0.97c1.83,0.55,3.17,1.24,4.01,2.05s1.26,1.83,1.26,3.05c0,1.35-0.51,2.42-1.54,3.19
			c-1.02,0.77-2.4,1.15-4.14,1.15c-1.2,0-2.3-0.22-3.29-0.66c-0.99-0.44-1.74-1.04-2.26-1.81s-0.78-1.65-0.78-2.66h3.23
			c0,1.73,1.03,2.59,3.09,2.59c0.77,0,1.36-0.16,1.79-0.47C999.77,400.7,999.98,400.27,999.98,399.71z"/>
	</g>
</g>
</svg>
