<?xml version="1.0" encoding="UTF-8" standalone="no"?>
<!DOCTYPE svg PUBLIC "-//W3C//DTD SVG 1.1//EN" "http://www.w3.org/Graphics/SVG/1.1/DTD/svg11.dtd">
<svg width="100%" height="100%" viewBox="0 0 935 457" version="1.1" xmlns="http://www.w3.org/2000/svg" xmlns:xlink="http://www.w3.org/1999/xlink" xml:space="preserve" xmlns:serif="http://www.serif.com/" style="fill-rule:evenodd;clip-rule:evenodd;stroke-linecap:square;stroke-linejoin:round;stroke-miterlimit:1.5;">
    <g transform="matrix(1,0,0,1,-1062.25,-117.422)">
        <g transform="matrix(1.34719,0,0,0.642611,1062.25,117.422)">
            <rect id="Artboard1" x="0" y="0" width="693.74" height="709.68" style="fill:none;"/>
            <g id="Artboard11" serif:id="Artboard1">
                <g transform="matrix(1.28704,0,0,1.22631,-99.5671,-66.6642)">
                    <g transform="matrix(1,0,0,1,-51.8365,63.2555)">
                        <g transform="matrix(0.320754,0,0,0.705741,-140.613,-23.1692)">
                            <circle cx="1445.38" cy="227.418" r="127.422" style="fill:rgb(222,26,26);"/>
                            <path d="M1445.38,99.996C1515.7,99.996 1572.8,157.092 1572.8,227.418C1572.8,297.744 1515.7,354.84 1445.38,354.84C1375.05,354.84 1317.96,297.744 1317.96,227.418C1317.96,157.092 1375.05,99.996 1445.38,99.996ZM1445.38,129.491C1391.33,129.491 1347.45,173.371 1347.45,227.418C1347.45,281.466 1391.33,325.345 1445.38,325.345C1499.42,325.345 1543.3,281.466 1543.3,227.418C1543.3,173.371 1499.42,129.491 1445.38,129.491Z"/>
                        </g>
                        <g transform="matrix(1.2129,0,0,2.6687,173.324,-184.536)">
                            <g transform="matrix(13.2841,0,0,13.2841,135.044,125.524)">
                            </g>
                            <text x="111.674px" y="125.524px" style="font-family:'Roboto-Black', 'Roboto Black';font-weight:900;font-size:13.284px;fill:white;">Red</text>
                        </g>
                    </g>
                    <g transform="matrix(1,0,0,1,34.8377,-154.255)">
                        <g transform="matrix(0.320754,0,0,0.705741,-75.8699,194.342)">
                            <circle cx="1445.38" cy="227.418" r="127.422" style="fill:rgb(13,112,18);"/>
                            <path d="M1445.38,99.996C1515.7,99.996 1572.8,157.092 1572.8,227.418C1572.8,297.744 1515.7,354.84 1445.38,354.84C1375.05,354.84 1317.96,297.744 1317.96,227.418C1317.96,157.092 1375.05,99.996 1445.38,99.996ZM1445.38,129.491C1391.33,129.491 1347.45,173.371 1347.45,227.418C1347.45,281.466 1391.33,325.345 1445.38,325.345C1499.42,325.345 1543.3,281.466 1543.3,227.418C1543.3,173.371 1499.42,129.491 1445.38,129.491Z"/>
                        </g>
                        <g transform="matrix(1.2129,0,0,2.6687,238.068,32.9754)">
                            <g transform="matrix(13.2841,0,0,13.2841,141.32,125.524)">
                            </g>
                            <text x="105.398px" y="125.524px" style="font-family:'Roboto-Black', 'Roboto Black';font-weight:900;font-size:13.284px;fill:white;">Gr<tspan x="119.363px " y="125.524px ">e</tspan>en</text>
                        </g>
                    </g>
                </g>
                <g transform="matrix(1.28704,0,0,1.22631,7.89508,95.222)">
                    <g transform="matrix(0.320754,0,0,0.705741,-200.236,194.342)">
                        <circle cx="1445.38" cy="227.418" r="127.422" style="fill:rgb(4,84,156);"/>
                        <path d="M1445.38,99.996C1515.7,99.996 1572.8,157.092 1572.8,227.418C1572.8,297.744 1515.7,354.84 1445.38,354.84C1375.05,354.84 1317.96,297.744 1317.96,227.418C1317.96,157.092 1375.05,99.996 1445.38,99.996ZM1445.38,129.491C1391.33,129.491 1347.45,173.371 1347.45,227.418C1347.45,281.466 1391.33,325.345 1445.38,325.345C1499.42,325.345 1543.3,281.466 1543.3,227.418C1543.3,173.371 1499.42,129.491 1445.38,129.491Z"/>
                    </g>
                    <g transform="matrix(1.2129,0,0,2.6687,113.701,32.9754)">
                        <g transform="matrix(13.2841,0,0,13.2841,149.119,125.524)">
                        </g>
                        <text x="97.598px" y="125.524px" style="font-family:'Roboto-Black', 'Roboto Black';font-weight:900;font-size:13.284px;fill:white;">Refact<tspan x="136.627px " y="125.524px ">o</tspan>r</text>
                    </g>
                </g>
                <g transform="matrix(0.760657,0,0,1.22631,-1527.35,-621.118)">
                    <g transform="matrix(0.975851,-0,-0,1.26897,2007.93,506.494)">
                        <path d="M466.657,79.846L515.868,104.451L466.657,129.057C478.96,116.754 478.96,92.149 466.657,79.846Z"/>
                        <path d="M423.457,104.451L476.5,104.451" style="fill:none;stroke:black;stroke-width:16.4px;"/>
                    </g>
                </g>
                <g transform="matrix(-0.380329,1.38102,-0.506584,-0.613155,1653.42,-2656.28)">
                    <g transform="matrix(-0.487926,-1.09896,0.845112,-0.634486,2529.41,1364.86)">
                        <path d="M550.515,239.638L504.6,269.953L507.897,215.032C512.4,231.838 533.709,244.141 550.515,239.638Z"/>
                        <path d="M550.806,189.922C550.806,189.922 536.855,214.086 524.285,235.859" style="fill:none;stroke:black;stroke-width:16.4px;"/>
                    </g>
                </g>
                <g transform="matrix(-0.380329,-1.38102,-0.506584,0.613155,1555.98,3371.92)">
                    <g transform="matrix(-0.487926,-1.09896,-0.845112,0.634486,2854,928.811)">
                        <path d="M376.626,244.843L373.33,189.922L419.244,220.237C402.438,215.734 381.129,228.037 376.626,244.843Z"/>
                        <path d="M419.535,269.953C419.535,269.953 405.584,245.789 393.014,224.016" style="fill:none;stroke:black;stroke-width:16.4px;"/>
                    </g>
                </g>
            </g>
        </g>
    </g>
</svg>
