<?xml version="1.0" encoding="UTF-8" standalone="no"?>
<!DOCTYPE svg PUBLIC "-//W3C//DTD SVG 1.1//EN" "http://www.w3.org/Graphics/SVG/1.1/DTD/svg11.dtd">
<svg width="100%" height="100%" viewBox="0 0 1234 650" version="1.1" xmlns="http://www.w3.org/2000/svg" xmlns:xlink="http://www.w3.org/1999/xlink" xml:space="preserve" xmlns:serif="http://www.serif.com/" style="fill-rule:evenodd;clip-rule:evenodd;stroke-linecap:square;stroke-miterlimit:1.5;">
    <g transform="matrix(1,0,0,1,-1684,-885)">
        <g transform="matrix(1,0,0,1,-0.595739,-0.196206)">
            <rect id="Artboard2" x="1684.6" y="885.196" width="1233.66" height="649.297" style="fill:none;"/>
            <g id="Artboard21" serif:id="Artboard2">
                <g transform="matrix(0.669568,0,0,1.14724,1989.57,-107.242)">
                    <rect x="657.586" y="1083.47" width="292.547" height="173.361" style="fill:rgb(26,130,222);"/>
                    <path d="M950.134,1083.47L950.134,1256.83L657.586,1256.83L657.586,1083.47L950.134,1083.47ZM851.966,1242.54L925.635,1242.54L925.635,1097.77L827.639,1097.77C827.639,1097.77 682.085,1097.77 682.085,1097.77L682.085,1242.54L851.966,1242.54Z"/>
                </g>
                <g transform="matrix(0.806352,0,0,1.6515,2124.33,-697.303)">
                    <rect x="657.586" y="1083.47" width="292.547" height="173.361" style="fill:rgb(13,65,111);"/>
                    <path d="M950.134,1083.47L950.134,1256.83L657.586,1256.83L657.586,1083.47L950.134,1083.47ZM677.929,1246.9L929.791,1246.9L929.791,1093.4L677.929,1093.4L677.929,1246.9Z"/>
                </g>
                <g transform="matrix(2.2339,0,0,2.2339,2252.48,947.338)">
                    <text x="98.415px" y="125.524px" style="font-family:'Roboto-Black', 'Roboto Black';font-weight:900;font-size:13.284px;fill:white;">W<tspan x="109.76px " y="125.524px ">o</tspan>rking</text>
                    <g transform="matrix(13.2841,0,0,13.2841,148.263,138.808)">
                    </g>
                    <text x="98.454px" y="138.808px" style="font-family:'Roboto-Black', 'Roboto Black';font-weight:900;font-size:13.284px;fill:white;">Memor<tspan x="141.381px " y="138.808px ">y</tspan></text>
                </g>
                <g transform="matrix(2.2339,0,0,2.2339,2496.79,947.338)">
                    <text x="89.724px" y="125.524px" style="font-family:'Roboto-Black', 'Roboto Black';font-weight:900;font-size:13.284px;fill:white;">Long-T<tspan x="133.286px " y="125.524px ">e</tspan>rm</text>
                    <g transform="matrix(13.2841,0,0,13.2841,148.263,138.808)">
                    </g>
                    <text x="98.454px" y="138.808px" style="font-family:'Roboto-Black', 'Roboto Black';font-weight:900;font-size:13.284px;fill:white;">Memor<tspan x="141.381px " y="138.808px ">y</tspan></text>
                </g>
                <g transform="matrix(2.2339,0,0,2.2339,1569.84,1122.41)">
                    <g transform="matrix(10.7435,0,0,10.7435,151.852,125.524)">
                    </g>
                    <text x="94.866px" y="125.524px" style="font-family:'Roboto-Black', 'Roboto Black';font-weight:900;font-size:10.744px;">Information</text>
                </g>
                <g transform="matrix(2.2339,0,0,2.2339,2372.46,776.226)">
                    <g transform="matrix(10.7435,0,0,10.7435,145.819,125.524)">
                    </g>
                    <text x="100.899px" y="125.524px" style="font-family:'Roboto-Black', 'Roboto Black';font-weight:900;font-size:10.744px;">Encoding</text>
                </g>
                <g transform="matrix(2.2339,0,0,2.2339,2088.73,894.274)">
                    <text x="100.235px" y="125.524px" style="font-family:'Roboto-Black', 'Roboto Black';font-weight:900;font-size:10.744px;">Cognitive</text>
                    <g transform="matrix(10.7435,0,0,10.7435,135.159,136.268)">
                    </g>
                    <text x="111.558px" y="136.268px" style="font-family:'Roboto-Black', 'Roboto Black';font-weight:900;font-size:10.744px;">Load</text>
                </g>
                <g transform="matrix(2.2339,0,0,2.2339,2372.46,1153.57)">
                    <g transform="matrix(10.7435,0,0,10.7435,145.098,125.524)">
                    </g>
                    <text x="101.62px" y="125.524px" style="font-family:'Roboto-Black', 'Roboto Black';font-weight:900;font-size:10.744px;">Retriev<tspan x="136.442px " y="125.524px ">a</tspan>l</text>
                </g>
                <g transform="matrix(0.738156,0,0,1.47111,536.443,-544.17)">
                    <g transform="matrix(1.17269,0,0,0.797042,-371.659,245.003)">
                        <path d="M2135.63,1294.96L2130.63,1294.96C2119.14,1294.96 2109.81,1245.69 2109.81,1209.65C2109.81,1173.6 2119.14,1124.34 2130.63,1124.34L2135.63,1124.34L2341.68,1164.34L2341.68,1254.96L2135.63,1294.96Z" style="fill:rgb(26,130,222);"/>
                        <path d="M2130.63,1303.49C2125.44,1303.49 2118.17,1300.78 2113.49,1293.01C2104.86,1278.64 2098.26,1239.75 2098.26,1209.65C2098.26,1179.55 2104.86,1140.66 2113.49,1126.29C2118.17,1118.52 2125.44,1115.81 2130.63,1115.81L2137.12,1115.81L2353.24,1157.76L2353.24,1261.54L2137.12,1303.49L2130.63,1303.49ZM2135.63,1294.96L2341.68,1254.96L2341.68,1164.34L2135.63,1124.34L2130.63,1124.34C2119.14,1124.34 2109.81,1173.6 2109.81,1209.65C2109.81,1245.69 2119.14,1294.96 2130.63,1294.96L2135.63,1294.96Z"/>
                    </g>
                    <g transform="matrix(0.147487,0,0,0.537392,2059.55,543.074)">
                        <circle cx="2182.53" cy="1239.45" r="65.311" style="fill:rgb(4,84,156);"/>
                        <path d="M2182.53,1161.49C2212.68,1161.49 2260.92,1163.6 2288.05,1172.64C2316.04,1181.96 2339.69,1208.34 2339.69,1239.45C2339.69,1270.56 2316.04,1296.93 2288.05,1306.26C2260.92,1315.3 2212.68,1317.41 2182.53,1317.41C2152.37,1317.41 2104.14,1315.3 2077,1306.26C2049.01,1296.93 2025.36,1270.56 2025.36,1239.45C2025.36,1208.34 2049.01,1181.96 2077,1172.64C2104.14,1163.6 2152.37,1161.49 2182.53,1161.49ZM2182.53,1174.14C2146.48,1174.14 2117.22,1203.4 2117.22,1239.45C2117.22,1275.49 2146.48,1304.76 2182.53,1304.76C2218.57,1304.76 2247.84,1275.49 2247.84,1239.45C2247.84,1203.4 2218.57,1174.14 2182.53,1174.14Z"/>
                    </g>
                </g>
                <g transform="matrix(0.478626,-4.94913e-16,-1.74646e-16,-0.683327,834.752,1649.63)">
                    <g transform="matrix(2.08931,-1.51323e-15,-5.33989e-16,-1.46343,1775.59,1118.69)">
                        <path d="M352.306,297.763L379.801,311.511L352.306,325.258L352.306,297.763Z"/>
                        <path d="M288.628,276.81C288.628,276.81 322.663,311.511 357.805,311.511" style="fill:none;stroke:black;stroke-width:9.17px;"/>
                    </g>
                </g>
                <g transform="matrix(0.478626,-4.94913e-16,-1.74646e-16,-0.683327,1370.39,1564.89)">
                    <g transform="matrix(2.08931,-1.51323e-15,-5.33989e-16,-1.46343,656.468,994.687)">
                        <path d="M1082.65,171.255L1068.9,198.75L1055.15,171.255L1082.65,171.255Z"/>
                        <path d="M843.615,236.71C843.615,236.71 850.727,157.172 920.491,131.571C990.254,105.969 1068.9,128.174 1068.9,176.754" style="fill:none;stroke:black;stroke-width:9.17px;"/>
                    </g>
                </g>
                <g transform="matrix(0.478626,4.94913e-16,-1.74646e-16,0.683327,1370.39,909.64)">
                    <g transform="matrix(2.08931,-1.51323e-15,5.33989e-16,1.46343,656.468,-35.7724)">
                        <path d="M857.84,479.591L841.438,453.592L830.48,482.313L857.84,479.591Z"/>
                        <path d="M843.615,475.48C843.615,475.48 850.727,546.969 920.491,572.57C990.254,598.171 1068.9,555.967 1068.9,507.387" style="fill:none;stroke:black;stroke-width:9.17px;stroke-dasharray:9.17,18.33,0,0;"/>
                    </g>
                </g>
                <g transform="matrix(0.478626,4.94913e-16,-1.74646e-16,0.683327,834.752,820.777)">
                    <g transform="matrix(2.08931,-1.51323e-15,5.33989e-16,1.46343,1775.59,94.273)">
                        <path d="M352.306,374.752L379.801,388.5L352.306,402.247L352.306,374.752Z"/>
                        <path d="M288.628,423.2C288.628,423.2 322.663,388.5 357.805,388.5" style="fill:none;stroke:black;stroke-width:9.17px;"/>
                    </g>
                </g>
                <g transform="matrix(0.478626,4.94913e-16,-1.74646e-16,0.683327,834.752,783.732)">
                    <g transform="matrix(2.08931,-1.51323e-15,5.33989e-16,1.46343,1775.59,148.486)">
                        <path d="M352.306,337.707L379.801,351.454L352.306,365.202L352.306,337.707Z"/>
                        <path d="M288.628,350.942C288.628,350.942 322.663,351.454 357.805,351.454" style="fill:none;stroke:black;stroke-width:9.17px;"/>
                    </g>
                </g>
                <g transform="matrix(0.35246,3.64454e-16,-1.28609e-16,0.503202,1490.46,902.986)">
                    <g transform="matrix(2.8372,-2.0549e-15,7.25135e-16,1.98727,550.805,-35.3535)">
                        <path d="M684.849,325.503L736.482,351.319L684.849,377.136L684.849,325.503Z"/>
                        <path d="M644.233,350.942C644.233,350.942 669.297,351.319 695.175,351.319" style="fill:none;stroke:black;stroke-width:17.21px;"/>
                    </g>
                </g>
                <g transform="matrix(0.837076,0,0,0.837076,295.249,222.469)">
                    <g transform="matrix(1,0,0,1,100.991,156.574)">
                        <circle cx="1750" cy="1053.27" r="24.845" style="fill:rgb(164,212,255);"/>
                        <path d="M1750,1017.48C1769.75,1017.48 1785.79,1033.52 1785.79,1053.27C1785.79,1073.03 1769.75,1089.07 1750,1089.07C1730.24,1089.07 1714.2,1073.03 1714.2,1053.27C1714.2,1033.52 1730.24,1017.48 1750,1017.48ZM1750,1028.43C1736.29,1028.43 1725.15,1039.56 1725.15,1053.27C1725.15,1066.98 1736.29,1078.12 1750,1078.12C1763.71,1078.12 1774.84,1066.98 1774.84,1053.27C1774.84,1039.56 1763.71,1028.43 1750,1028.43Z"/>
                    </g>
                    <g transform="matrix(1,0,0,1,100.991,47.4839)">
                        <circle cx="1750" cy="1053.27" r="24.845" style="fill:rgb(4,84,156);"/>
                        <path d="M1750,1017.48C1769.75,1017.48 1785.79,1033.52 1785.79,1053.27C1785.79,1073.03 1769.75,1089.07 1750,1089.07C1730.24,1089.07 1714.2,1073.03 1714.2,1053.27C1714.2,1033.52 1730.24,1017.48 1750,1017.48ZM1750,1028.43C1736.29,1028.43 1725.15,1039.56 1725.15,1053.27C1725.15,1066.98 1736.29,1078.12 1750,1078.12C1763.71,1078.12 1774.84,1066.98 1774.84,1053.27C1774.84,1039.56 1763.71,1028.43 1750,1028.43Z"/>
                    </g>
                    <g transform="matrix(1,0,0,1,100.991,265.664)">
                        <circle cx="1750" cy="1053.27" r="24.845" style="fill:rgb(26,130,222);"/>
                        <path d="M1750,1017.48C1769.75,1017.48 1785.79,1033.52 1785.79,1053.27C1785.79,1073.03 1769.75,1089.07 1750,1089.07C1730.24,1089.07 1714.2,1073.03 1714.2,1053.27C1714.2,1033.52 1730.24,1017.48 1750,1017.48ZM1750,1028.43C1736.29,1028.43 1725.15,1039.56 1725.15,1053.27C1725.15,1066.98 1736.29,1078.12 1750,1078.12C1763.71,1078.12 1774.84,1066.98 1774.84,1053.27C1774.84,1039.56 1763.71,1028.43 1750,1028.43Z"/>
                    </g>
                </g>
                <g transform="matrix(0.837076,0,0,0.837076,295.939,222.469)">
                    <g transform="matrix(1,0,0,1,197.127,106.884)">
                        <circle cx="1750" cy="1053.27" r="24.845" style="fill:rgb(26,130,222);"/>
                        <path d="M1750,1017.48C1769.75,1017.48 1785.79,1033.52 1785.79,1053.27C1785.79,1073.03 1769.75,1089.07 1750,1089.07C1730.24,1089.07 1714.2,1073.03 1714.2,1053.27C1714.2,1033.52 1730.24,1017.48 1750,1017.48ZM1750,1028.43C1736.29,1028.43 1725.15,1039.56 1725.15,1053.27C1725.15,1066.98 1736.29,1078.12 1750,1078.12C1763.71,1078.12 1774.84,1066.98 1774.84,1053.27C1774.84,1039.56 1763.71,1028.43 1750,1028.43Z"/>
                    </g>
                    <g transform="matrix(1,0,0,1,197.127,215.974)">
                        <circle cx="1750" cy="1053.27" r="24.845" style="fill:rgb(4,84,156);"/>
                        <path d="M1750,1017.48C1769.75,1017.48 1785.79,1033.52 1785.79,1053.27C1785.79,1073.03 1769.75,1089.07 1750,1089.07C1730.24,1089.07 1714.2,1073.03 1714.2,1053.27C1714.2,1033.52 1730.24,1017.48 1750,1017.48ZM1750,1028.43C1736.29,1028.43 1725.15,1039.56 1725.15,1053.27C1725.15,1066.98 1736.29,1078.12 1750,1078.12C1763.71,1078.12 1774.84,1066.98 1774.84,1053.27C1774.84,1039.56 1763.71,1028.43 1750,1028.43Z"/>
                    </g>
                </g>
                <g transform="matrix(0.837076,0,0,0.837076,295.939,222.469)">
                    <g transform="matrix(1,0,0,1,3.2042,106.884)">
                        <circle cx="1750" cy="1053.27" r="24.845" style="fill:rgb(26,130,222);"/>
                        <path d="M1750,1017.48C1769.75,1017.48 1785.79,1033.52 1785.79,1053.27C1785.79,1073.03 1769.75,1089.07 1750,1089.07C1730.24,1089.07 1714.2,1073.03 1714.2,1053.27C1714.2,1033.52 1730.24,1017.48 1750,1017.48ZM1750,1028.43C1736.29,1028.43 1725.15,1039.56 1725.15,1053.27C1725.15,1066.98 1736.29,1078.12 1750,1078.12C1763.71,1078.12 1774.84,1066.98 1774.84,1053.27C1774.84,1039.56 1763.71,1028.43 1750,1028.43Z"/>
                    </g>
                    <g transform="matrix(1,0,0,1,3.2042,215.974)">
                        <circle cx="1750" cy="1053.27" r="24.845" style="fill:rgb(4,84,156);"/>
                        <path d="M1750,1017.48C1769.75,1017.48 1785.79,1033.52 1785.79,1053.27C1785.79,1073.03 1769.75,1089.07 1750,1089.07C1730.24,1089.07 1714.2,1073.03 1714.2,1053.27C1714.2,1033.52 1730.24,1017.48 1750,1017.48ZM1750,1028.43C1736.29,1028.43 1725.15,1039.56 1725.15,1053.27C1725.15,1066.98 1736.29,1078.12 1750,1078.12C1763.71,1078.12 1774.84,1066.98 1774.84,1053.27C1774.84,1039.56 1763.71,1028.43 1750,1028.43Z"/>
                    </g>
                </g>
                <g transform="matrix(2.2339,0,0,2.2339,1912.42,947.896)">
                    <text x="98.691px" y="125.524px" style="font-family:'Roboto-Black', 'Roboto Black';font-weight:900;font-size:13.284px;fill:white;">Sensor<tspan x="141.144px " y="125.524px ">y</tspan></text>
                    <g transform="matrix(13.2841,0,0,13.2841,148.263,138.808)">
                    </g>
                    <text x="98.454px" y="138.808px" style="font-family:'Roboto-Black', 'Roboto Black';font-weight:900;font-size:13.284px;fill:white;">Memor<tspan x="141.381px " y="138.808px ">y</tspan></text>
                </g>
            </g>
        </g>
    </g>
</svg>
